{
 "thai_33": "\u0e2a\u0e38\u0e15\u0e15\u0e31\u0e19\u0e15\u0e1b\u0e34\u0e0e\u0e01 \u0e02\u0e38\u0e17\u0e17\u0e01\u0e19\u0e34\u0e01\u0e32\u0e22 \u0e2d\u0e1b\u0e17\u0e32\u0e19 \u0e20\u0e32\u0e04 \u0e52 -\u0e1e\u0e38\u0e17\u0e18\u0e27\u0e31\u0e07\u0e2a\u0e30-\u0e08\u0e23\u0e34\u0e22\u0e32\u0e1b\u0e34\u0e0e\u0e01", 
 "thaimm_39": "\u0e2a\u0e38\u0e15\u0e15\u0e31\u0e19\u0e15\u0e1b\u0e34\u0e0e\u0e01 \u0e02\u0e38\u0e17\u0e17\u0e01\u0e19\u0e34\u0e01\u0e32\u0e22 \u0e02\u0e38\u0e17\u0e17\u0e01\u0e1b\u0e32\u0e10\u0e30 \u0e40\u0e25\u0e48\u0e21\u0e17\u0e35\u0e48 \u0e51", 
 "thaimm_38": "\u0e2a\u0e38\u0e15\u0e15\u0e31\u0e19\u0e15\u0e1b\u0e34\u0e0e\u0e01 \u0e2d\u0e31\u0e07\u0e04\u0e38\u0e15\u0e15\u0e23\u0e19\u0e34\u0e01\u0e32\u0e22 \u0e17\u0e2a\u0e01-\u0e40\u0e2d\u0e01\u0e32\u0e17\u0e2a\u0e01\u0e19\u0e34\u0e1a\u0e32\u0e15 \u0e40\u0e25\u0e48\u0e21\u0e17\u0e35\u0e48 \u0e55", 
 "thaimm_66": "\u0e2a\u0e38\u0e15\u0e15\u0e31\u0e19\u0e15\u0e1b\u0e34\u0e0e\u0e01 \u0e02\u0e38\u0e17\u0e17\u0e01\u0e19\u0e34\u0e01\u0e32\u0e22 \u0e21\u0e2b\u0e32\u0e19\u0e34\u0e17\u0e40\u0e17\u0e2a \u0e40\u0e25\u0e48\u0e21\u0e17\u0e35\u0e48 \u0e55 \u0e20\u0e32\u0e04\u0e17\u0e35\u0e48 \u0e52", 
 "thai_32": "\u0e2a\u0e38\u0e15\u0e15\u0e31\u0e19\u0e15\u0e1b\u0e34\u0e0e\u0e01 \u0e02\u0e38\u0e17\u0e17\u0e01\u0e19\u0e34\u0e01\u0e32\u0e22 \u0e2d\u0e1b\u0e17\u0e32\u0e19 \u0e20\u0e32\u0e04 \u0e51", 
 "thaimm_33": "\u0e2a\u0e38\u0e15\u0e15\u0e31\u0e19\u0e15\u0e1b\u0e34\u0e0e\u0e01 \u0e2d\u0e31\u0e07\u0e04\u0e38\u0e15\u0e15\u0e23\u0e19\u0e34\u0e01\u0e32\u0e22 \u0e40\u0e2d\u0e01\u0e19\u0e34\u0e1a\u0e32\u0e15-\u0e17\u0e38\u0e01\u0e19\u0e34\u0e1a\u0e32\u0e15 \u0e40\u0e25\u0e48\u0e21\u0e17\u0e35\u0e48 \u0e51 \u0e20\u0e32\u0e04\u0e17\u0e35\u0e48 \u0e52", 
 "thaimm_32": "\u0e2a\u0e38\u0e15\u0e15\u0e31\u0e19\u0e15\u0e1b\u0e34\u0e0e\u0e01 \u0e2d\u0e31\u0e07\u0e04\u0e38\u0e15\u0e15\u0e23\u0e19\u0e34\u0e01\u0e32\u0e22 \u0e40\u0e2d\u0e01\u0e19\u0e34\u0e1a\u0e32\u0e15 \u0e40\u0e25\u0e48\u0e21\u0e17\u0e35\u0e48 \u0e51 \u0e20\u0e32\u0e04\u0e17\u0e35\u0e48 \u0e51", 
 "thaimm_31": "\u0e2a\u0e38\u0e15\u0e15\u0e31\u0e19\u0e15\u0e1b\u0e34\u0e0e\u0e01 \u0e2a\u0e31\u0e07\u0e22\u0e38\u0e15\u0e15\u0e19\u0e34\u0e01\u0e32\u0e22 \u0e21\u0e2b\u0e32\u0e27\u0e32\u0e23\u0e32\u0e27\u0e23\u0e23\u0e04 \u0e40\u0e25\u0e48\u0e21\u0e17\u0e35\u0e48 \u0e55 \u0e20\u0e32\u0e04\u0e17\u0e35\u0e48 \u0e52", 
 "thaimm_30": "\u0e2a\u0e38\u0e15\u0e15\u0e31\u0e19\u0e15\u0e1b\u0e34\u0e0e\u0e01 \u0e2a\u0e31\u0e07\u0e22\u0e38\u0e15\u0e15\u0e19\u0e34\u0e01\u0e32\u0e22 \u0e21\u0e2b\u0e32\u0e27\u0e32\u0e23\u0e32\u0e27\u0e23\u0e23\u0e04 \u0e40\u0e25\u0e48\u0e21\u0e17\u0e35\u0e48 \u0e55 \u0e20\u0e32\u0e04\u0e17\u0e35\u0e48 \u0e51", 
 "thaimm_37": "\u0e2a\u0e38\u0e15\u0e15\u0e31\u0e19\u0e15\u0e1b\u0e34\u0e0e\u0e01 \u0e2d\u0e31\u0e07\u0e04\u0e38\u0e15\u0e15\u0e23\u0e19\u0e34\u0e01\u0e32\u0e22 \u0e2a\u0e31\u0e15\u0e15\u0e01-\u0e2d\u0e31\u0e0f\u0e10\u0e01-\u0e19\u0e27\u0e01\u0e19\u0e34\u0e1a\u0e32\u0e15\u0e34 \u0e40\u0e25\u0e48\u0e21\u0e17\u0e35\u0e48 \u0e54", 
 "thai_31": "\u0e2a\u0e38\u0e15\u0e15\u0e31\u0e19\u0e15\u0e1b\u0e34\u0e0e\u0e01 \u0e02\u0e38\u0e17\u0e17\u0e01\u0e19\u0e34\u0e01\u0e32\u0e22 \u0e1b\u0e0f\u0e34\u0e2a\u0e31\u0e21\u0e20\u0e34\u0e17\u0e32\u0e21\u0e23\u0e23\u0e04", 
 "thaimm_35": "\u0e2a\u0e38\u0e15\u0e15\u0e31\u0e19\u0e15\u0e1b\u0e34\u0e0e\u0e01 \u0e2d\u0e31\u0e07\u0e04\u0e38\u0e15\u0e15\u0e23\u0e19\u0e34\u0e01\u0e32\u0e22 \u0e08\u0e15\u0e38\u0e01\u0e19\u0e34\u0e1a\u0e32\u0e15 \u0e40\u0e25\u0e48\u0e21\u0e17\u0e35\u0e48 \u0e52", 
 "thaimm_34": "\u0e2a\u0e38\u0e15\u0e15\u0e31\u0e19\u0e15\u0e1b\u0e34\u0e0e\u0e01 \u0e2d\u0e31\u0e07\u0e04\u0e38\u0e15\u0e15\u0e23\u0e19\u0e34\u0e01\u0e32\u0e22 \u0e15\u0e34\u0e01\u0e19\u0e34\u0e1a\u0e32\u0e15 \u0e40\u0e25\u0e48\u0e21\u0e17\u0e35\u0e48 \u0e51 \u0e20\u0e32\u0e04\u0e17\u0e35\u0e48 \u0e53", 
 "thaims_6": "\u0e27\u0e34\u0e19\u0e31\u0e22\u0e1b\u0e34\u0e0e\u0e01 \u0e08\u0e38\u0e25\u0e27\u0e23\u0e23\u0e04 \u0e20\u0e32\u0e04 \u0e51", 
 "pali_7": "\u0e27\u0e34\u0e19\u0e22\u0e1b\u0e34\u0e0f\u0e40\u0e01 \u0e08\u0e38\u0e25\u0e3a\u0e25\u0e27\u0e04\u0e3a\u0e42\u0e04 \u0e20\u0e32\u0e04 \u0e52", 
 "thaims_29": "\u0e2a\u0e38\u0e15\u0e15\u0e31\u0e19\u0e15\u0e1b\u0e34\u0e0e\u0e01 \u0e02\u0e38\u0e17\u0e17\u0e01\u0e19\u0e34\u0e01\u0e32\u0e22 \u0e21\u0e2b\u0e32\u0e19\u0e34\u0e17\u0e40\u0e17\u0e2a", 
 "thaimm_84": "\u0e2d\u0e20\u0e34\u0e18\u0e23\u0e23\u0e21\u0e1b\u0e34\u0e0e\u0e01 \u0e22\u0e21\u0e01 \u0e20\u0e32\u0e04\u0e17\u0e35\u0e48 \u0e51 \u0e15\u0e2d\u0e19\u0e17\u0e35\u0e48 \u0e52 (\u0e15\u0e48\u0e2d)", 
 "thaipb_9": "\u0e1e\u0e38\u0e17\u0e18\u0e27\u0e08\u0e19 \u0e1b\u0e10\u0e21\u0e18\u0e23\u0e23\u0e21", 
 "pali_6": "\u0e27\u0e34\u0e19\u0e22\u0e1b\u0e34\u0e0f\u0e40\u0e01 \u0e08\u0e38\u0e25\u0e3a\u0e25\u0e27\u0e04\u0e3a\u0e42\u0e04 \u0e20\u0e32\u0e04 \u0e51", 
 "thai_37": "\u0e2d\u0e20\u0e34\u0e18\u0e23\u0e23\u0e21\u0e1b\u0e34\u0e0e\u0e01 \u0e01\u0e16\u0e32\u0e27\u0e31\u0e15\u0e16\u0e38\u0e1b\u0e01\u0e23\u0e13\u0e4c", 
 "pali_11": "\u0e2a\u0e38\u0e15\u0e3a\u0e15\u0e19\u0e3a\u0e15\u0e1b\u0e34\u0e0f\u0e40\u0e01 \u0e17\u0e35\u0e06\u0e19\u0e34\u0e01\u0e32\u0e22\u0e2a\u0e3a\u0e2a \u0e1b\u0e32\u0e0f\u0e34\u0e01\u0e3a\u0e27\u0e04\u0e3a\u0e42\u0e04", 
 "thaimc_\ufeff": "", 
 "thai_36": "\u0e2d\u0e20\u0e34\u0e18\u0e23\u0e23\u0e21\u0e1b\u0e34\u0e0e\u0e01 \u0e18\u0e32\u0e15\u0e38\u0e01\u0e16\u0e32-\u0e1b\u0e38\u0e04\u0e04\u0e25\u0e1a\u0e31\u0e0d\u0e0d\u0e31\u0e15\u0e34\u0e1b\u0e01\u0e23\u0e13\u0e4c", 
 "thai_9": "\u0e2a\u0e38\u0e15\u0e15\u0e31\u0e19\u0e15\u0e1b\u0e34\u0e0e\u0e01 \u0e17\u0e35\u0e06\u0e19\u0e34\u0e01\u0e32\u0e22 \u0e2a\u0e35\u0e25\u0e02\u0e31\u0e19\u0e18\u0e27\u0e23\u0e23\u0e04", 
 "thai_8": "\u0e27\u0e34\u0e19\u0e31\u0e22\u0e1b\u0e34\u0e0e\u0e01 \u0e1b\u0e23\u0e34\u0e27\u0e32\u0e23", 
 "thaiwn_8": "\u0e2a\u0e38\u0e15\u0e15\u0e31\u0e19\u0e15\u0e1b\u0e34\u0e0e\u0e01 \u0e2a\u0e31\u0e07\u0e22\u0e38\u0e15\u0e15\u0e19\u0e34\u0e01\u0e32\u0e22 \u0e19\u0e34\u0e17\u0e32\u0e19\u0e27\u0e23\u0e23\u0e04", 
 "thaiwn_9": "\u0e2a\u0e38\u0e15\u0e15\u0e31\u0e19\u0e15\u0e1b\u0e34\u0e0e\u0e01 \u0e2a\u0e31\u0e07\u0e22\u0e38\u0e15\u0e15\u0e19\u0e34\u0e01\u0e32\u0e22 \u0e02\u0e31\u0e19\u0e18\u0e27\u0e32\u0e23\u0e27\u0e23\u0e23\u0e04", 
 "thaimc_19": "\u0e2a\u0e38\u0e15\u0e15\u0e31\u0e19\u0e15\u0e1b\u0e34\u0e0e\u0e01 \u0e2a\u0e31\u0e07\u0e22\u0e38\u0e15\u0e15\u0e19\u0e34\u0e01\u0e32\u0e22 \u0e21\u0e2b\u0e32\u0e27\u0e32\u0e23\u0e27\u0e23\u0e23\u0e04", 
 "thaimc_18": "\u0e2a\u0e38\u0e15\u0e15\u0e31\u0e19\u0e15\u0e1b\u0e34\u0e0e\u0e01 \u0e2a\u0e31\u0e07\u0e22\u0e38\u0e15\u0e15\u0e19\u0e34\u0e01\u0e32\u0e22 \u0e2a\u0e2c\u0e32\u0e22\u0e15\u0e19\u0e27\u0e23\u0e23\u0e04", 
 "thaims_28": "\u0e2a\u0e38\u0e15\u0e15\u0e31\u0e19\u0e15\u0e1b\u0e34\u0e0e\u0e01 \u0e02\u0e38\u0e17\u0e17\u0e01\u0e19\u0e34\u0e01\u0e32\u0e22 \u0e0a\u0e32\u0e14\u0e01 \u0e20\u0e32\u0e04 \u0e52", 
 "pali_19": "\u0e2a\u0e38\u0e15\u0e3a\u0e15\u0e19\u0e3a\u0e15\u0e1b\u0e34\u0e0f\u0e40\u0e01 \u0e2a\u0e4d\u0e22\u0e38\u0e15\u0e3a\u0e15\u0e19\u0e34\u0e01\u0e32\u0e22\u0e2a\u0e3a\u0e2a \u0e21\u0e2b\u0e32\u0e27\u0e32\u0e23\u0e27\u0e04\u0e3a\u0e42\u0e04", 
 "pali_18": "\u0e2a\u0e38\u0e15\u0e3a\u0e15\u0e19\u0e3a\u0e15\u0e1b\u0e34\u0e0f\u0e40\u0e01 \u0e2a\u0e4d\u0e22\u0e38\u0e15\u0e3a\u0e15\u0e19\u0e34\u0e01\u0e32\u0e22\u0e2a\u0e3a\u0e2a \u0e2a\u0e2c\u0e32\u0e22\u0e15\u0e19\u0e27\u0e04\u0e3a\u0e42\u0e04", 
 "thaimc_13": "\u0e2a\u0e38\u0e15\u0e15\u0e31\u0e19\u0e15\u0e1b\u0e34\u0e0e\u0e01 \u0e21\u0e31\u0e0a\u0e0c\u0e34\u0e21\u0e19\u0e34\u0e01\u0e32\u0e22 \u0e21\u0e31\u0e0a\u0e0c\u0e34\u0e21\u0e1b\u0e31\u0e13\u0e13\u0e32\u0e2a\u0e01\u0e4c", 
 "thaimc_12": "\u0e2a\u0e38\u0e15\u0e15\u0e31\u0e19\u0e15\u0e1b\u0e34\u0e0e\u0e01 \u0e21\u0e31\u0e0a\u0e0c\u0e34\u0e21\u0e19\u0e34\u0e01\u0e32\u0e22 \u0e21\u0e39\u0e25\u0e1b\u0e31\u0e13\u0e13\u0e32\u0e2a\u0e01\u0e4c", 
 "thaimc_11": "\u0e2a\u0e38\u0e15\u0e15\u0e31\u0e19\u0e15\u0e1b\u0e34\u0e0e\u0e01 \u0e17\u0e35\u0e06\u0e19\u0e34\u0e01\u0e32\u0e22 \u0e1b\u0e32\u0e0f\u0e34\u0e01\u0e27\u0e23\u0e23\u0e04", 
 "thaimm_85": "\u0e2d\u0e20\u0e34\u0e18\u0e23\u0e23\u0e21\u0e1b\u0e34\u0e0e\u0e01 \u0e1b\u0e31\u0e0f\u0e10\u0e32\u0e19 \u0e20\u0e32\u0e04\u0e17\u0e35\u0e48 \u0e51", 
 "thaimc_17": "\u0e2a\u0e38\u0e15\u0e15\u0e31\u0e19\u0e15\u0e1b\u0e34\u0e0e\u0e01 \u0e2a\u0e31\u0e07\u0e22\u0e38\u0e15\u0e15\u0e19\u0e34\u0e01\u0e32\u0e22 \u0e02\u0e31\u0e19\u0e18\u0e27\u0e32\u0e23\u0e27\u0e23\u0e23\u0e04", 
 "thaimc_16": "\u0e2a\u0e38\u0e15\u0e15\u0e31\u0e19\u0e15\u0e1b\u0e34\u0e0e\u0e01 \u0e2a\u0e31\u0e07\u0e22\u0e38\u0e15\u0e15\u0e19\u0e34\u0e01\u0e32\u0e22 \u0e19\u0e34\u0e17\u0e32\u0e19\u0e27\u0e23\u0e23\u0e04", 
 "thaimm_80": "\u0e2d\u0e20\u0e34\u0e18\u0e23\u0e23\u0e21\u0e1b\u0e34\u0e0e\u0e01 \u0e01\u0e16\u0e32\u0e27\u0e31\u0e15\u0e16\u0e38 \u0e20\u0e32\u0e04\u0e17\u0e35\u0e48 \u0e51", 
 "thaimc_14": "\u0e2a\u0e38\u0e15\u0e15\u0e31\u0e19\u0e15\u0e1b\u0e34\u0e0e\u0e01 \u0e21\u0e31\u0e0a\u0e0c\u0e34\u0e21\u0e19\u0e34\u0e01\u0e32\u0e22 \u0e2d\u0e38\u0e1b\u0e23\u0e34\u0e1b\u0e31\u0e13\u0e13\u0e32\u0e2a\u0e01\u0e4c", 
 "thaimm_28": "\u0e2a\u0e38\u0e15\u0e15\u0e31\u0e19\u0e15\u0e1b\u0e34\u0e0e\u0e01 \u0e2a\u0e31\u0e07\u0e22\u0e38\u0e15\u0e15\u0e19\u0e34\u0e01\u0e32\u0e22 \u0e2a\u0e2c\u0e32\u0e22\u0e15\u0e19\u0e27\u0e23\u0e23\u0e04 \u0e40\u0e25\u0e48\u0e21\u0e17\u0e35\u0e48 \u0e54 \u0e20\u0e32\u0e04\u0e17\u0e35\u0e48 \u0e51", 
 "thaimm_29": "\u0e2a\u0e38\u0e15\u0e15\u0e31\u0e19\u0e15\u0e1b\u0e34\u0e0e\u0e01 \u0e2a\u0e31\u0e07\u0e22\u0e38\u0e15\u0e15\u0e19\u0e34\u0e01\u0e32\u0e22 \u0e2a\u0e2c\u0e32\u0e22\u0e15\u0e19\u0e27\u0e23\u0e23\u0e04 \u0e40\u0e25\u0e48\u0e21\u0e17\u0e35\u0e48 \u0e54 \u0e20\u0e32\u0e04\u0e17\u0e35\u0e48 \u0e51 (\u0e15\u0e48\u0e2d)", 
 "thaimm_24": "\u0e2a\u0e38\u0e15\u0e15\u0e31\u0e19\u0e15\u0e1b\u0e34\u0e0e\u0e01 \u0e2a\u0e31\u0e07\u0e22\u0e38\u0e15\u0e15\u0e19\u0e34\u0e01\u0e32\u0e23 \u0e2a\u0e04\u0e32\u0e16\u0e27\u0e23\u0e23\u0e04 \u0e40\u0e25\u0e48\u0e21\u0e17\u0e35\u0e48 \u0e51", 
 "thaimm_25": "\u0e2a\u0e38\u0e15\u0e15\u0e31\u0e19\u0e15\u0e1b\u0e34\u0e0e\u0e01 \u0e2a\u0e31\u0e07\u0e22\u0e38\u0e15\u0e15\u0e19\u0e34\u0e01\u0e32\u0e22 \u0e2a\u0e04\u0e32\u0e16\u0e27\u0e23\u0e23\u0e04 \u0e40\u0e25\u0e48\u0e21\u0e17\u0e35\u0e48 \u0e51 \u0e20\u0e32\u0e04\u0e17\u0e35\u0e48 \u0e52", 
 "thaimm_26": "\u0e2a\u0e38\u0e15\u0e15\u0e31\u0e19\u0e15\u0e1b\u0e34\u0e0e\u0e01 \u0e2a\u0e31\u0e07\u0e22\u0e38\u0e15\u0e15\u0e19\u0e34\u0e01\u0e32\u0e22 \u0e19\u0e34\u0e17\u0e32\u0e19\u0e27\u0e23\u0e23\u0e04 \u0e40\u0e25\u0e48\u0e21\u0e17\u0e35\u0e48 \u0e52", 
 "thaimm_27": "\u0e2a\u0e38\u0e15\u0e15\u0e31\u0e19\u0e15\u0e1b\u0e34\u0e0e\u0e01 \u0e2a\u0e31\u0e07\u0e22\u0e38\u0e15\u0e15\u0e19\u0e34\u0e01\u0e32\u0e22 \u0e02\u0e31\u0e19\u0e18\u0e27\u0e32\u0e23\u0e27\u0e23\u0e23\u0e04 \u0e40\u0e25\u0e48\u0e21\u0e17\u0e35\u0e48 \u0e53", 
 "thaimm_20": "\u0e2a\u0e38\u0e15\u0e15\u0e31\u0e19\u0e15\u0e1b\u0e34\u0e0e\u0e01 \u0e21\u0e31\u0e0a\u0e0c\u0e34\u0e21\u0e19\u0e34\u0e01\u0e32\u0e22 \u0e21\u0e31\u0e0a\u0e0c\u0e34\u0e21\u0e1b\u0e31\u0e13\u0e13\u0e32\u0e2a\u0e01\u0e4c \u0e40\u0e25\u0e48\u0e21\u0e17\u0e35\u0e48 \u0e52 \u0e20\u0e32\u0e04\u0e17\u0e35\u0e48 \u0e51", 
 "thaimm_21": "\u0e2a\u0e38\u0e15\u0e15\u0e31\u0e19\u0e15\u0e1b\u0e34\u0e0e\u0e01 \u0e21\u0e31\u0e0a\u0e0c\u0e34\u0e21\u0e19\u0e34\u0e01\u0e32\u0e22 \u0e21\u0e31\u0e0a\u0e0c\u0e34\u0e21\u0e1b\u0e31\u0e13\u0e13\u0e32\u0e2a\u0e01\u0e4c \u0e40\u0e25\u0e48\u0e21\u0e17\u0e35\u0e48 \u0e52 \u0e20\u0e32\u0e04\u0e17\u0e35\u0e48 \u0e52", 
 "thaimm_22": "\u0e2a\u0e38\u0e15\u0e15\u0e31\u0e19\u0e15\u0e1b\u0e34\u0e0e\u0e01 \u0e21\u0e31\u0e0a\u0e0c\u0e34\u0e21\u0e19\u0e34\u0e01\u0e32\u0e22 \u0e2d\u0e38\u0e1b\u0e23\u0e34\u0e1b\u0e31\u0e13\u0e13\u0e32\u0e2a\u0e01\u0e4c \u0e40\u0e25\u0e48\u0e21\u0e17\u0e35\u0e48 \u0e53 \u0e20\u0e32\u0e04\u0e17\u0e35\u0e48 \u0e51", 
 "thaimm_36": "\u0e2a\u0e38\u0e15\u0e15\u0e31\u0e19\u0e15\u0e1b\u0e34\u0e0e\u0e01 \u0e2d\u0e31\u0e07\u0e04\u0e38\u0e15\u0e15\u0e23\u0e19\u0e34\u0e01\u0e32\u0e22 \u0e1b\u0e31\u0e0d\u0e08\u0e01-\u0e09\u0e31\u0e01\u0e01\u0e19\u0e34\u0e1a\u0e32\u0e15 \u0e40\u0e25\u0e48\u0e21\u0e17\u0e35\u0e48 \u0e53", 
 "thaipb_8": "\u0e1e\u0e38\u0e17\u0e18\u0e27\u0e08\u0e19 \u0e2d\u0e34\u0e19\u0e17\u0e23\u0e35\u0e22\u0e2a\u0e31\u0e07\u0e27\u0e23", 
 "thai_1": "\u0e27\u0e34\u0e19\u0e31\u0e22\u0e1b\u0e34\u0e0e\u0e01 \u0e21\u0e2b\u0e32\u0e27\u0e34\u0e20\u0e31\u0e07\u0e04\u0e4c \u0e20\u0e32\u0e04 \u0e51", 
 "thaivn_11": "\u0e2d\u0e23\u0e34\u0e22\u0e27\u0e34\u0e19\u0e31\u0e22 \u0e20\u0e32\u0e04\u0e1e\u0e34\u0e40\u0e28\u0e29 \u0e40\u0e1e\u0e37\u0e48\u0e2d\u0e0a\u0e48\u0e27\u0e22\u0e43\u0e19\u0e01\u0e32\u0e23\u0e28\u0e36\u0e01\u0e29\u0e32\u0e04\u0e49\u0e19\u0e04\u0e27\u0e49\u0e32\u0e19\u0e33\u0e21\u0e32\u0e1b\u0e0f\u0e34\u0e1a\u0e31\u0e15\u0e34", 
 "thaiwn_6": "\u0e2a\u0e38\u0e15\u0e15\u0e31\u0e19\u0e15\u0e1b\u0e34\u0e0e\u0e01 \u0e21\u0e31\u0e0a\u0e0c\u0e34\u0e21\u0e19\u0e34\u0e01\u0e32\u0e22 \u0e2d\u0e38\u0e1b\u0e23\u0e34\u0e1b\u0e31\u0e13\u0e13\u0e32\u0e2a\u0e01\u0e4c", 
 "thaimc_36": "\u0e2d\u0e20\u0e34\u0e18\u0e23\u0e23\u0e21\u0e1b\u0e34\u0e0e\u0e01 \u0e18\u0e32\u0e15\u0e38\u0e01\u0e16\u0e32-\u0e1b\u0e38\u0e04\u0e04\u0e25\u0e1a\u0e31\u0e0d\u0e0d\u0e31\u0e15\u0e34\u0e1b\u0e01\u0e23\u0e13\u0e4c", 
 "thaivn_10": "\u0e2d\u0e23\u0e34\u0e22\u0e27\u0e34\u0e19\u0e31\u0e22 \u0e2d\u0e23\u0e34\u0e22\u0e27\u0e34\u0e19\u0e31\u0e22 \u0e17\u0e35\u0e48\u0e21\u0e32\u0e43\u0e19\u0e1e\u0e23\u0e30\u0e44\u0e15\u0e23\u0e1b\u0e34\u0e0e\u0e01\u0e40\u0e25\u0e48\u0e21\u0e2d\u0e37\u0e48\u0e19\u0e46", 
 "thaims_18": "\u0e2a\u0e38\u0e15\u0e15\u0e31\u0e19\u0e15\u0e1b\u0e34\u0e0e\u0e01 \u0e2a\u0e31\u0e07\u0e22\u0e38\u0e15\u0e15\u0e19\u0e34\u0e01\u0e32\u0e22 \u0e2a\u0e2c\u0e32\u0e22\u0e15\u0e19\u0e27\u0e23\u0e23\u0e04", 
 "thai_3": "\u0e27\u0e34\u0e19\u0e31\u0e22\u0e1b\u0e34\u0e0e\u0e01 \u0e20\u0e34\u0e01\u0e02\u0e38\u0e19\u0e35\u0e27\u0e34\u0e20\u0e31\u0e07\u0e04\u0e4c", 
 "thai_2": "\u0e27\u0e34\u0e19\u0e31\u0e22\u0e1b\u0e34\u0e0e\u0e01 \u0e21\u0e2b\u0e32\u0e27\u0e34\u0e20\u0e31\u0e07\u0e04\u0e4c \u0e20\u0e32\u0e04 \u0e52", 
 "thaims_9": "\u0e2a\u0e38\u0e15\u0e15\u0e31\u0e19\u0e15\u0e1b\u0e34\u0e0e\u0e01 \u0e17\u0e35\u0e06\u0e19\u0e34\u0e01\u0e32\u0e22 \u0e2a\u0e35\u0e25\u0e02\u0e31\u0e19\u0e18\u0e27\u0e23\u0e23\u0e04", 
 "thaims_34": "\u0e2d\u0e20\u0e34\u0e18\u0e23\u0e23\u0e21\u0e1b\u0e34\u0e0e\u0e01 \u0e18\u0e23\u0e23\u0e21\u0e2a\u0e31\u0e07\u0e04\u0e13\u0e35\u0e1b\u0e01\u0e23\u0e13\u0e4c", 
 "thaims_2": "\u0e27\u0e34\u0e19\u0e31\u0e22\u0e1b\u0e34\u0e0e\u0e01 \u0e21\u0e2b\u0e32\u0e27\u0e34\u0e20\u0e31\u0e07\u0e04\u0e4c \u0e20\u0e32\u0e04 \u0e52", 
 "thai_5": "\u0e27\u0e34\u0e19\u0e31\u0e22\u0e1b\u0e34\u0e0e\u0e01 \u0e21\u0e2b\u0e32\u0e27\u0e23\u0e23\u0e04 \u0e20\u0e32\u0e04 \u0e52", 
 "thaims_8": "\u0e27\u0e34\u0e19\u0e31\u0e22\u0e1b\u0e34\u0e0e\u0e01 \u0e1b\u0e23\u0e34\u0e27\u0e32\u0e23", 
 "thai_4": "\u0e27\u0e34\u0e19\u0e31\u0e22\u0e1b\u0e34\u0e0e\u0e01 \u0e21\u0e2b\u0e32\u0e27\u0e23\u0e23\u0e04 \u0e20\u0e32\u0e04 \u0e51", 
 "thaims_7": "\u0e27\u0e34\u0e19\u0e31\u0e22\u0e1b\u0e34\u0e0e\u0e01 \u0e08\u0e38\u0e25\u0e27\u0e23\u0e23\u0e04 \u0e20\u0e32\u0e04 \u0e52", 
 "thaims_10": "\u0e2a\u0e38\u0e15\u0e15\u0e31\u0e19\u0e15\u0e1b\u0e34\u0e0e\u0e01 \u0e17\u0e35\u0e06\u0e19\u0e34\u0e01\u0e32\u0e22 \u0e21\u0e2b\u0e32\u0e27\u0e23\u0e23\u0e04", 
 "thai_7": "\u0e27\u0e34\u0e19\u0e31\u0e22\u0e1b\u0e34\u0e0e\u0e01 \u0e08\u0e38\u0e25\u0e27\u0e23\u0e23\u0e04 \u0e20\u0e32\u0e04 \u0e52", 
 "thaiwn_17": "\u0e2a\u0e38\u0e15\u0e15\u0e31\u0e19\u0e15\u0e1b\u0e34\u0e0e\u0e01 \u0e02\u0e38\u0e17\u0e17\u0e01\u0e19\u0e34\u0e01\u0e32\u0e22 \u0e02\u0e38\u0e17\u0e17\u0e01\u0e1b\u0e32\u0e10-\u0e18\u0e23\u0e23\u0e21\u0e1a\u0e17-\u0e2d\u0e38\u0e17\u0e32\u0e19-\u0e2d\u0e34\u0e15\u0e34\u0e27\u0e38\u0e15\u0e15\u0e01\u0e30-\u0e2a\u0e38\u0e15\u0e15\u0e19\u0e34\u0e1a\u0e32\u0e15", 
 "thai_6": "\u0e27\u0e34\u0e19\u0e31\u0e22\u0e1b\u0e34\u0e0e\u0e01 \u0e08\u0e38\u0e25\u0e27\u0e23\u0e23\u0e04 \u0e20\u0e32\u0e04 \u0e51", 
 "thaims_5": "\u0e27\u0e34\u0e19\u0e31\u0e22\u0e1b\u0e34\u0e0e\u0e01 \u0e21\u0e2b\u0e32\u0e27\u0e23\u0e23\u0e04 \u0e20\u0e32\u0e04 \u0e52", 
 "thaipb_19": "\u0e1e\u0e38\u0e17\u0e18\u0e27\u0e08\u0e19 \u0e2a\u0e31\u0e15\u0e27\u0e4c", 
 "thaipb_18": "\u0e1e\u0e38\u0e17\u0e18\u0e27\u0e08\u0e19 \u0e2a\u0e01\u0e17\u0e32\u0e04\u0e32\u0e21\u0e35", 
 "thaims_4": "\u0e27\u0e34\u0e19\u0e31\u0e22\u0e1b\u0e34\u0e0e\u0e01 \u0e21\u0e2b\u0e32\u0e27\u0e23\u0e23\u0e04 \u0e20\u0e32\u0e04 \u0e51", 
 "thaims_33": "\u0e2a\u0e38\u0e15\u0e15\u0e31\u0e19\u0e15\u0e1b\u0e34\u0e0e\u0e01 \u0e02\u0e38\u0e17\u0e17\u0e01\u0e19\u0e34\u0e01\u0e32\u0e22 \u0e2d\u0e1b\u0e17\u0e32\u0e19 \u0e20\u0e32\u0e04 \u0e52 -\u0e1e\u0e38\u0e17\u0e18\u0e27\u0e31\u0e07\u0e2a\u0e30-\u0e08\u0e23\u0e34\u0e22\u0e32\u0e1b\u0e34\u0e0e\u0e01", 
 "thaipb_11": "\u0e1e\u0e38\u0e17\u0e18\u0e27\u0e08\u0e19 \u0e20\u0e1e\u0e20\u0e39\u0e21\u0e34", 
 "thaipb_10": "\u0e1e\u0e38\u0e17\u0e18\u0e27\u0e08\u0e19 \u0e2a\u0e32\u0e18\u0e22\u0e32\u0e22\u0e18\u0e23\u0e23\u0e21", 
 "thaipb_13": "\u0e1e\u0e38\u0e17\u0e18\u0e27\u0e08\u0e19 \u0e17\u0e32\u0e19", 
 "thaipb_12": "\u0e1e\u0e38\u0e17\u0e18\u0e27\u0e08\u0e19 \u0e40\u0e14\u0e23\u0e31\u0e08\u0e09\u0e32\u0e19\u0e27\u0e34\u0e0a\u0e32", 
 "thaipb_15": "\u0e1e\u0e38\u0e17\u0e18\u0e27\u0e08\u0e19 \u0e2a\u0e21\u0e16\u0e30 \u0e27\u0e34\u0e1b\u0e31\u0e2a\u0e2a\u0e19\u0e32", 
 "thaipb_14": "\u0e1e\u0e38\u0e17\u0e18\u0e27\u0e08\u0e19 \u0e15\u0e16\u0e32\u0e04\u0e15", 
 "thaipb_17": "\u0e1e\u0e38\u0e17\u0e18\u0e27\u0e08\u0e19 \u0e08\u0e34\u0e15 \u0e21\u0e42\u0e19 \u0e27\u0e34\u0e0d\u0e0d\u0e32\u0e13", 
 "thaipb_16": "\u0e1e\u0e38\u0e17\u0e18\u0e27\u0e08\u0e19 \u0e2d\u0e19\u0e32\u0e04\u0e32\u0e21\u0e35", 
 "thaimm_59": "\u0e2a\u0e38\u0e15\u0e15\u0e31\u0e19\u0e15\u0e1b\u0e34\u0e0e\u0e01 \u0e02\u0e38\u0e17\u0e17\u0e01\u0e19\u0e34\u0e01\u0e32\u0e22 \u0e0a\u0e32\u0e14\u0e01 \u0e40\u0e25\u0e48\u0e21\u0e17\u0e35\u0e48 \u0e53 \u0e20\u0e32\u0e04\u0e17\u0e35\u0e48 \u0e55", 
 "thaimm_58": "\u0e2a\u0e38\u0e15\u0e15\u0e31\u0e19\u0e15\u0e1b\u0e34\u0e0e\u0e01 \u0e02\u0e38\u0e17\u0e17\u0e01\u0e19\u0e34\u0e01\u0e32\u0e22 \u0e0a\u0e32\u0e14\u0e01 \u0e40\u0e25\u0e48\u0e21\u0e17\u0e35\u0e48 \u0e53 \u0e20\u0e32\u0e04\u0e17\u0e35\u0e48 \u0e54", 
 "thaivn_9": "\u0e2d\u0e23\u0e34\u0e22\u0e27\u0e34\u0e19\u0e31\u0e22 \u0e27\u0e34\u0e19\u0e31\u0e22\u0e1b\u0e34\u0e0e\u0e01\u0e40\u0e25\u0e48\u0e21 \u0e58", 
 "thaivn_8": "\u0e2d\u0e23\u0e34\u0e22\u0e27\u0e34\u0e19\u0e31\u0e22 \u0e27\u0e34\u0e19\u0e31\u0e22\u0e1b\u0e34\u0e0e\u0e01\u0e40\u0e25\u0e48\u0e21 \u0e57", 
 "thaims_1": "\u0e27\u0e34\u0e19\u0e31\u0e22\u0e1b\u0e34\u0e0e\u0e01 \u0e21\u0e2b\u0e32\u0e27\u0e34\u0e20\u0e31\u0e07\u0e04\u0e4c \u0e20\u0e32\u0e04 \u0e51", 
 "thaimc_30": "\u0e2a\u0e38\u0e15\u0e15\u0e31\u0e19\u0e15\u0e1b\u0e34\u0e0e\u0e01 \u0e02\u0e38\u0e17\u0e17\u0e01\u0e19\u0e34\u0e01\u0e32\u0e22 \u0e08\u0e39\u0e2c\u0e19\u0e34\u0e17\u0e40\u0e17\u0e2a", 
 "thaimm_51": "\u0e2a\u0e38\u0e15\u0e15\u0e31\u0e19\u0e15\u0e1b\u0e34\u0e0e\u0e01 \u0e02\u0e38\u0e17\u0e17\u0e01\u0e19\u0e34\u0e01\u0e32\u0e22 \u0e40\u0e16\u0e23\u0e04\u0e32\u0e16\u0e32 \u0e40\u0e25\u0e48\u0e21\u0e17\u0e35\u0e48 \u0e52 \u0e20\u0e32\u0e04\u0e17\u0e35\u0e48 \u0e53", 
 "thaimm_50": "\u0e2a\u0e38\u0e15\u0e15\u0e31\u0e19\u0e15\u0e1b\u0e34\u0e0e\u0e01 \u0e02\u0e38\u0e17\u0e17\u0e01\u0e19\u0e34\u0e01\u0e32\u0e22 \u0e40\u0e16\u0e23\u0e04\u0e32\u0e16\u0e32 \u0e40\u0e25\u0e48\u0e21\u0e17\u0e35\u0e48 \u0e52 \u0e20\u0e32\u0e04\u0e17\u0e35\u0e48 \u0e53", 
 "thaivn_1": "\u0e2d\u0e23\u0e34\u0e22\u0e27\u0e34\u0e19\u0e31\u0e22 \u0e2a\u0e38\u0e15\u0e31\u0e19\u0e15\u0e1b\u0e34\u0e0e\u0e01\u0e40\u0e25\u0e48\u0e21\u0e17\u0e35\u0e48 \u0e51", 
 "thaimm_52": "\u0e2a\u0e38\u0e15\u0e15\u0e31\u0e19\u0e15\u0e1b\u0e34\u0e0e\u0e01 \u0e02\u0e38\u0e17\u0e17\u0e01\u0e19\u0e34\u0e01\u0e32\u0e22 \u0e40\u0e16\u0e23\u0e04\u0e32\u0e16\u0e32 \u0e40\u0e25\u0e48\u0e21\u0e17\u0e35\u0e48 \u0e52 \u0e20\u0e32\u0e04\u0e17\u0e35\u0e48 \u0e53", 
 "thaivn_7": "\u0e2d\u0e23\u0e34\u0e22\u0e27\u0e34\u0e19\u0e31\u0e22 \u0e27\u0e34\u0e19\u0e31\u0e22\u0e1b\u0e34\u0e0e\u0e01\u0e40\u0e25\u0e48\u0e21 \u0e56", 
 "thaivn_6": "\u0e2d\u0e23\u0e34\u0e22\u0e27\u0e34\u0e19\u0e31\u0e22 \u0e27\u0e34\u0e19\u0e31\u0e22\u0e1b\u0e34\u0e0e\u0e01\u0e40\u0e25\u0e48\u0e21 \u0e55", 
 "thaimm_57": "\u0e2a\u0e38\u0e15\u0e15\u0e31\u0e19\u0e15\u0e1b\u0e34\u0e0e\u0e01 \u0e02\u0e38\u0e17\u0e17\u0e01\u0e19\u0e34\u0e01\u0e32\u0e22 \u0e0a\u0e32\u0e14\u0e01 \u0e40\u0e25\u0e48\u0e21\u0e17\u0e35\u0e48 \u0e53 \u0e20\u0e32\u0e04\u0e17\u0e35\u0e48 \u0e53", 
 "thaimm_56": "\u0e2a\u0e38\u0e15\u0e15\u0e31\u0e19\u0e15\u0e1b\u0e34\u0e0e\u0e01 \u0e02\u0e38\u0e17\u0e17\u0e01\u0e19\u0e34\u0e01\u0e32\u0e22 \u0e0a\u0e32\u0e14\u0e01 \u0e40\u0e25\u0e48\u0e21\u0e17\u0e35\u0e48 \u0e53 \u0e20\u0e32\u0e04\u0e17\u0e35\u0e48 \u0e52", 
 "thaims_23": "\u0e2a\u0e38\u0e15\u0e15\u0e31\u0e19\u0e15\u0e1b\u0e34\u0e0e\u0e01 \u0e2d\u0e31\u0e07\u0e04\u0e38\u0e15\u0e15\u0e23\u0e19\u0e34\u0e01\u0e32\u0e22 \u0e2a\u0e31\u0e15\u0e15\u0e01-\u0e2d\u0e31\u0e0f\u0e10\u0e01-\u0e19\u0e27\u0e01\u0e19\u0e34\u0e1a\u0e32\u0e15", 
 "thaimm_19": "\u0e2a\u0e38\u0e15\u0e15\u0e31\u0e19\u0e15\u0e1b\u0e34\u0e0e\u0e01 \u0e21\u0e31\u0e0a\u0e0c\u0e34\u0e21\u0e19\u0e34\u0e01\u0e32\u0e22 \u0e21\u0e39\u0e25\u0e1b\u0e31\u0e13\u0e13\u0e32\u0e2a\u0e01\u0e4c \u0e40\u0e25\u0e48\u0e21\u0e17\u0e35\u0e48 \u0e51 \u0e20\u0e32\u0e04\u0e17\u0e35\u0e48 \u0e52 (\u0e15\u0e48\u0e2d)", 
 "thai_18": "\u0e2a\u0e38\u0e15\u0e15\u0e31\u0e19\u0e15\u0e1b\u0e34\u0e0e\u0e01 \u0e2a\u0e31\u0e07\u0e22\u0e38\u0e15\u0e15\u0e19\u0e34\u0e01\u0e32\u0e22 \u0e2a\u0e2c\u0e32\u0e22\u0e15\u0e19\u0e27\u0e23\u0e23\u0e04", 
 "thaims_39": "\u0e2d\u0e20\u0e34\u0e18\u0e23\u0e23\u0e21\u0e1b\u0e34\u0e0e\u0e01 \u0e22\u0e21\u0e01\u0e1b\u0e01\u0e23\u0e13\u0e4c \u0e20\u0e32\u0e04 \u0e52", 
 "thaims_38": "\u0e2d\u0e20\u0e34\u0e18\u0e23\u0e23\u0e21\u0e1b\u0e34\u0e0e\u0e01 \u0e22\u0e21\u0e01\u0e1b\u0e01\u0e23\u0e13\u0e4c \u0e20\u0e32\u0e04 \u0e51", 
 "pali_39": "\u0e2d\u0e20\u0e34\u0e18\u0e21\u0e3a\u0e21\u0e1b\u0e34\u0e0f\u0e40\u0e01 \u0e22\u0e21\u0e01\u0e4d \u0e20\u0e32\u0e04 \u0e52", 
 "pali_38": "\u0e2d\u0e20\u0e34\u0e18\u0e21\u0e3a\u0e21\u0e1b\u0e34\u0e0f\u0e40\u0e01 \u0e22\u0e21\u0e01\u0e4d \u0e20\u0e32\u0e04 \u0e51", 
 "thaimc_32": "\u0e2a\u0e38\u0e15\u0e15\u0e31\u0e19\u0e15\u0e1b\u0e34\u0e0e\u0e01 \u0e02\u0e38\u0e17\u0e17\u0e01\u0e19\u0e34\u0e01\u0e32\u0e22 \u0e2d\u0e1b\u0e17\u0e32\u0e19 \u0e20\u0e32\u0e04 \u0e51", 
 "pali_31": "\u0e2a\u0e38\u0e15\u0e3a\u0e15\u0e19\u0e3a\u0e15\u0e1b\u0e34\u0e0f\u0e40\u0e01 \u0e02\u0e38\u0e17\u0e3a\u0e17\u0e01\u0e19\u0e34\u0e01\u0e32\u0e22\u0e2a\u0e3a\u0e2a \u0e1b\u0e0f\u0e34\u0e2a\u0e21\u0e3a\u0e20\u0e34\u0e17\u0e32\u0e21\u0e04\u0e3a\u0e42\u0e04", 
 "pali_30": "\u0e2a\u0e38\u0e15\u0e3a\u0e15\u0e19\u0e3a\u0e15\u0e1b\u0e34\u0e0f\u0e40\u0e01 \u0e02\u0e38\u0e17\u0e3a\u0e17\u0e01\u0e19\u0e34\u0e01\u0e32\u0e22\u0e2a\u0e3a\u0e2a \u0e08\u0e39\u0e2c\u0e19\u0e34\u0e17\u0e3a\u0e40\u0e17\u0e42\u0e2a", 
 "pali_33": "\u0e2a\u0e38\u0e15\u0e3a\u0e15\u0e19\u0e3a\u0e15\u0e1b\u0e34\u0e0f\u0e40\u0e01 \u0e02\u0e38\u0e17\u0e3a\u0e17\u0e01\u0e19\u0e34\u0e01\u0e32\u0e22\u0e2a\u0e3a\u0e2a \u0e2d\u0e1b\u0e17\u0e32\u0e19\u0e4d \u0e20\u0e32\u0e04 \u0e52 \u0e1e\u0e38\u0e17\u0e3a\u0e18\u0e27\u0e4d\u0e42\u0e2a \u0e08\u0e23\u0e22\u0e32\u0e1b\u0e34\u0e0f\u0e01\u0e4d", 
 "pali_32": "\u0e2a\u0e38\u0e15\u0e3a\u0e15\u0e19\u0e3a\u0e15\u0e1b\u0e34\u0e0f\u0e40\u0e01 \u0e02\u0e38\u0e17\u0e3a\u0e17\u0e01\u0e19\u0e34\u0e01\u0e32\u0e22\u0e2a\u0e3a\u0e2a \u0e2d\u0e1b\u0e17\u0e32\u0e19\u0e4d \u0e20\u0e32\u0e04 \u0e51", 
 "pali_35": "\u0e2d\u0e20\u0e34\u0e18\u0e21\u0e3a\u0e21\u0e1b\u0e34\u0e0f\u0e40\u0e01 \u0e27\u0e34\u0e20\u0e07\u0e3a\u0e42\u0e04", 
 "pali_34": "\u0e2d\u0e20\u0e34\u0e18\u0e21\u0e3a\u0e21\u0e1b\u0e34\u0e0f\u0e40\u0e01 \u0e18\u0e21\u0e3a\u0e21\u0e2a\u0e07\u0e3a\u0e04\u0e13\u0e34", 
 "pali_37": "\u0e2d\u0e20\u0e34\u0e18\u0e21\u0e3a\u0e21\u0e1b\u0e34\u0e0f\u0e40\u0e01 \u0e01\u0e16\u0e32\u0e27\u0e15\u0e3a\u0e16\u0e38", 
 "pali_36": "\u0e2d\u0e20\u0e34\u0e18\u0e21\u0e3a\u0e21\u0e1b\u0e34\u0e0f\u0e40\u0e01 \u0e18\u0e32\u0e15\u0e38\u0e01\u0e16\u0e32 \u0e40\u0e08\u0e27 \u0e1b\u0e38\u0e04\u0e3a\u0e04\u0e25\u0e1b\u0e0d\u0e3a\u0e0d\u0e15\u0e3a\u0e15\u0e34 \u0e08", 
 "thai_44": "\u0e2d\u0e20\u0e34\u0e18\u0e23\u0e23\u0e21\u0e1b\u0e34\u0e0e\u0e01 \u0e1b\u0e31\u0e0f\u0e10\u0e32\u0e19\u0e1b\u0e01\u0e23\u0e13\u0e4c \u0e20\u0e32\u0e04 \u0e55", 
 "thai_45": "\u0e2d\u0e20\u0e34\u0e18\u0e23\u0e23\u0e21\u0e1b\u0e34\u0e0e\u0e01 \u0e1b\u0e31\u0e0f\u0e10\u0e32\u0e19\u0e1b\u0e01\u0e23\u0e13\u0e4c \u0e20\u0e32\u0e04 \u0e56", 
 "thai_42": "\u0e2d\u0e20\u0e34\u0e18\u0e23\u0e23\u0e21\u0e1b\u0e34\u0e0e\u0e01 \u0e21\u0e2b\u0e32\u0e1b\u0e31\u0e0f\u0e10\u0e32\u0e19\u0e1b\u0e01\u0e23\u0e13\u0e4c \u0e20\u0e32\u0e04 \u0e53", 
 "thai_43": "\u0e2d\u0e20\u0e34\u0e18\u0e23\u0e23\u0e21\u0e1b\u0e34\u0e0e\u0e01 \u0e1b\u0e31\u0e0f\u0e10\u0e32\u0e19\u0e1b\u0e01\u0e23\u0e13\u0e4c \u0e20\u0e32\u0e04 \u0e54", 
 "thai_40": "\u0e2d\u0e20\u0e34\u0e18\u0e23\u0e23\u0e21\u0e1b\u0e34\u0e0e\u0e01 \u0e21\u0e2b\u0e32\u0e1b\u0e31\u0e0f\u0e10\u0e32\u0e19\u0e1b\u0e01\u0e23\u0e13\u0e4c \u0e20\u0e32\u0e04 \u0e51", 
 "thai_41": "\u0e2d\u0e20\u0e34\u0e18\u0e23\u0e23\u0e21\u0e1b\u0e34\u0e0e\u0e01 \u0e21\u0e2b\u0e32\u0e1b\u0e31\u0e0f\u0e10\u0e32\u0e19\u0e1b\u0e01\u0e23\u0e13\u0e4c \u0e20\u0e32\u0e04 \u0e52", 
 "thaims_\ufeff": "", 
 "thaims_40": "\u0e2d\u0e20\u0e34\u0e18\u0e23\u0e23\u0e21\u0e1b\u0e34\u0e0e\u0e01 \u0e21\u0e2b\u0e32\u0e1b\u0e31\u0e0f\u0e10\u0e32\u0e19\u0e1b\u0e01\u0e23\u0e13\u0e4c \u0e20\u0e32\u0e04 \u0e51", 
 "thaims_41": "\u0e2d\u0e20\u0e34\u0e18\u0e23\u0e23\u0e21\u0e1b\u0e34\u0e0e\u0e01 \u0e21\u0e2b\u0e32\u0e1b\u0e31\u0e0f\u0e10\u0e32\u0e19\u0e1b\u0e01\u0e23\u0e13\u0e4c \u0e20\u0e32\u0e04 \u0e52", 
 "thaims_42": "\u0e2d\u0e20\u0e34\u0e18\u0e23\u0e23\u0e21\u0e1b\u0e34\u0e0e\u0e01 \u0e21\u0e2b\u0e32\u0e1b\u0e31\u0e0f\u0e10\u0e32\u0e19\u0e1b\u0e01\u0e23\u0e13\u0e4c \u0e20\u0e32\u0e04 \u0e53", 
 "thaims_43": "\u0e2d\u0e20\u0e34\u0e18\u0e23\u0e23\u0e21\u0e1b\u0e34\u0e0e\u0e01 \u0e1b\u0e31\u0e0f\u0e10\u0e32\u0e19\u0e1b\u0e01\u0e23\u0e13\u0e4c \u0e20\u0e32\u0e04 \u0e54", 
 "thaims_44": "\u0e2d\u0e20\u0e34\u0e18\u0e23\u0e23\u0e21\u0e1b\u0e34\u0e0e\u0e01 \u0e1b\u0e31\u0e0f\u0e10\u0e32\u0e19\u0e1b\u0e01\u0e23\u0e13\u0e4c \u0e20\u0e32\u0e04 \u0e55", 
 "thaims_45": "\u0e2d\u0e20\u0e34\u0e18\u0e23\u0e23\u0e21\u0e1b\u0e34\u0e0e\u0e01 \u0e1b\u0e31\u0e0f\u0e10\u0e32\u0e19\u0e1b\u0e01\u0e23\u0e13\u0e4c \u0e20\u0e32\u0e04 \u0e56", 
 "thaimc_9": "\u0e2a\u0e38\u0e15\u0e15\u0e31\u0e19\u0e15\u0e1b\u0e34\u0e0e\u0e01 \u0e17\u0e35\u0e06\u0e19\u0e34\u0e01\u0e32\u0e22 \u0e2a\u0e35\u0e25\u0e02\u0e31\u0e19\u0e18\u0e27\u0e23\u0e23\u0e04", 
 "thaimc_8": "\u0e27\u0e34\u0e19\u0e31\u0e22\u0e1b\u0e34\u0e0e\u0e01 \u0e1b\u0e23\u0e34\u0e27\u0e32\u0e23", 
 "thaimm_42": "\u0e2a\u0e38\u0e15\u0e15\u0e31\u0e19\u0e15\u0e1b\u0e34\u0e0e\u0e01 \u0e02\u0e38\u0e17\u0e17\u0e01\u0e19\u0e34\u0e01\u0e32\u0e22 \u0e04\u0e32\u0e16\u0e32\u0e18\u0e23\u0e23\u0e21\u0e1a\u0e17 \u0e40\u0e25\u0e48\u0e21\u0e17\u0e35\u0e48 \u0e51 \u0e20\u0e32\u0e04\u0e17\u0e35\u0e48 \u0e52", 
 "thaimc_6": "\u0e27\u0e34\u0e19\u0e31\u0e22\u0e1b\u0e34\u0e0e\u0e01 \u0e08\u0e38\u0e25\u0e27\u0e23\u0e23\u0e04 \u0e20\u0e32\u0e04 \u0e51", 
 "thaimc_5": "\u0e27\u0e34\u0e19\u0e31\u0e22\u0e1b\u0e34\u0e0e\u0e01 \u0e21\u0e2b\u0e32\u0e27\u0e23\u0e23\u0e04 \u0e20\u0e32\u0e04 \u0e52", 
 "thaimc_4": "\u0e27\u0e34\u0e19\u0e31\u0e22\u0e1b\u0e34\u0e0e\u0e01 \u0e21\u0e2b\u0e32\u0e27\u0e23\u0e23\u0e04 \u0e20\u0e32\u0e04 \u0e51", 
 "thaimc_3": "\u0e27\u0e34\u0e19\u0e31\u0e22\u0e1b\u0e34\u0e0e\u0e01 \u0e20\u0e34\u0e01\u0e02\u0e38\u0e19\u0e35\u0e27\u0e34\u0e20\u0e31\u0e07\u0e04\u0e4c", 
 "thaimc_2": "\u0e27\u0e34\u0e19\u0e31\u0e22\u0e1b\u0e34\u0e0e\u0e01 \u0e21\u0e2b\u0e32\u0e27\u0e34\u0e20\u0e31\u0e07\u0e04\u0e4c \u0e20\u0e32\u0e04 \u0e52", 
 "thaimc_1": "\u0e27\u0e34\u0e19\u0e31\u0e22\u0e1b\u0e34\u0e0e\u0e01 \u0e21\u0e2b\u0e32\u0e27\u0e34\u0e20\u0e31\u0e07\u0e04\u0e4c \u0e20\u0e32\u0e04 \u0e51", 
 "thaimm_45": "\u0e2a\u0e38\u0e15\u0e15\u0e31\u0e19\u0e15\u0e1b\u0e34\u0e0e\u0e01 \u0e02\u0e38\u0e17\u0e17\u0e01\u0e19\u0e34\u0e01\u0e32\u0e22 \u0e2d\u0e34\u0e15\u0e34\u0e27\u0e38\u0e15\u0e15\u0e01\u0e30 \u0e40\u0e25\u0e48\u0e21\u0e17\u0e35\u0e48 \u0e51 \u0e20\u0e32\u0e04\u0e17\u0e35\u0e48 \u0e54", 
 "pali_26": "\u0e2a\u0e38\u0e15\u0e3a\u0e15\u0e19\u0e3a\u0e15\u0e1b\u0e34\u0e0f\u0e40\u0e01 \u0e02\u0e38\u0e17\u0e3a\u0e17\u0e01\u0e19\u0e34\u0e01\u0e32\u0e22\u0e2a\u0e3a\u0e2a \u0e27\u0e34\u0e21\u0e32\u0e19\u0e27\u0e15\u0e3a\u0e16\u0e38-\u0e40\u0e1b\u0e15\u0e27\u0e15\u0e3a\u0e16\u0e38-\u0e40\u0e16\u0e23\u0e04\u0e32\u0e16\u0e32-\u0e40\u0e16\u0e23\u0e35\u0e04\u0e32\u0e16\u0e32", 
 "pali_27": "\u0e2a\u0e38\u0e15\u0e3a\u0e15\u0e19\u0e3a\u0e15\u0e1b\u0e34\u0e0f\u0e40\u0e01 \u0e02\u0e38\u0e17\u0e3a\u0e17\u0e01\u0e19\u0e34\u0e01\u0e32\u0e22\u0e2a\u0e3a\u0e2a \u0e0a\u0e32\u0e15\u0e01\u0e4d \u0e20\u0e32\u0e04 \u0e51:\u0e40\u0e2d\u0e01-\u0e08\u0e15\u0e3a\u0e15\u0e32\u0e25\u0e35\u0e2a\u0e19\u0e34\u0e1b\u0e32\u0e15\u0e0a\u0e32\u0e15\u0e01\u0e4d", 
 "pali_24": "\u0e2a\u0e38\u0e15\u0e3a\u0e15\u0e19\u0e3a\u0e15\u0e1b\u0e34\u0e0f\u0e40\u0e01 \u0e2d\u0e07\u0e3a\u0e04\u0e38\u0e15\u0e3a\u0e15\u0e23\u0e19\u0e34\u0e01\u0e32\u0e22\u0e2a\u0e3a\u0e2a \u0e17\u0e2a\u0e01-\u0e40\u0e2d\u0e01\u0e32\u0e17\u0e2a\u0e01\u0e19\u0e34\u0e1b\u0e32\u0e15\u0e32", 
 "thaiwn_\ufeff": "", 
 "thaimm_9": "\u0e27\u0e34\u0e19\u0e31\u0e22\u0e1b\u0e34\u0e0e\u0e01 \u0e08\u0e38\u0e25\u0e27\u0e23\u0e23\u0e04 \u0e17\u0e38\u0e15\u0e34\u0e22\u0e20\u0e32\u0e04", 
 "pali_23": "\u0e2a\u0e38\u0e15\u0e3a\u0e15\u0e19\u0e3a\u0e15\u0e1b\u0e34\u0e0f\u0e40\u0e01 \u0e2d\u0e07\u0e3a\u0e04\u0e38\u0e15\u0e3a\u0e15\u0e23\u0e19\u0e34\u0e01\u0e32\u0e22\u0e2a\u0e3a\u0e2a \u0e2a\u0e15\u0e3a\u0e15\u0e01-\u0e2d\u0e0f\u0e3a\u0e10\u0e01-\u0e19\u0e27\u0e01\u0e19\u0e34\u0e1b\u0e32\u0e15\u0e32", 
 "pali_20": "\u0e2a\u0e38\u0e15\u0e3a\u0e15\u0e19\u0e3a\u0e15\u0e1b\u0e34\u0e0f\u0e40\u0e01 \u0e2d\u0e07\u0e3a\u0e04\u0e38\u0e15\u0e3a\u0e15\u0e23\u0e19\u0e34\u0e01\u0e32\u0e22\u0e2a\u0e3a\u0e2a \u0e40\u0e2d\u0e01-\u0e17\u0e38\u0e01-\u0e15\u0e34\u0e01\u0e19\u0e34\u0e1b\u0e32\u0e15\u0e32", 
 "pali_21": "\u0e2a\u0e38\u0e15\u0e3a\u0e15\u0e19\u0e3a\u0e15\u0e1b\u0e34\u0e0f\u0e40\u0e01 \u0e2d\u0e07\u0e3a\u0e04\u0e38\u0e15\u0e3a\u0e15\u0e23\u0e19\u0e34\u0e01\u0e32\u0e22\u0e2a\u0e3a\u0e2a \u0e08\u0e15\u0e38\u0e01\u0e3a\u0e01\u0e19\u0e34\u0e1b\u0e32\u0e15\u0e32", 
 "thaimm_5": "\u0e27\u0e34\u0e19\u0e31\u0e22\u0e1b\u0e34\u0e0e\u0e01 \u0e20\u0e34\u0e01\u0e02\u0e38\u0e19\u0e35\u0e27\u0e34\u0e20\u0e31\u0e07\u0e04\u0e4c", 
 "thaimm_4": "\u0e27\u0e34\u0e19\u0e31\u0e22\u0e1b\u0e34\u0e0e\u0e01 \u0e21\u0e2b\u0e32\u0e27\u0e34\u0e20\u0e31\u0e07\u0e04\u0e4c \u0e17\u0e38\u0e15\u0e34\u0e22\u0e20\u0e32\u0e04", 
 "thaimm_7": "\u0e27\u0e34\u0e19\u0e31\u0e22\u0e1b\u0e34\u0e0e\u0e01 \u0e21\u0e2b\u0e32\u0e27\u0e23\u0e23\u0e04 \u0e20\u0e32\u0e04\u0e17\u0e35\u0e48 \u0e52", 
 "thaimm_6": "\u0e27\u0e34\u0e19\u0e31\u0e22\u0e1b\u0e34\u0e0e\u0e01 \u0e21\u0e2b\u0e32\u0e27\u0e23\u0e23\u0e04 \u0e20\u0e32\u0e04\u0e17\u0e35\u0e48 \u0e51", 
 "thaimm_1": "\u0e27\u0e34\u0e19\u0e31\u0e22\u0e1b\u0e34\u0e0e\u0e01 \u0e21\u0e2b\u0e32\u0e27\u0e34\u0e20\u0e31\u0e07\u0e04\u0e4c \u0e1b\u0e10\u0e21\u0e20\u0e32\u0e04", 
 "thaimm_48": "\u0e2a\u0e38\u0e15\u0e15\u0e31\u0e19\u0e15\u0e1b\u0e34\u0e0e\u0e01 \u0e02\u0e38\u0e17\u0e17\u0e01\u0e19\u0e34\u0e01\u0e32\u0e22 \u0e27\u0e34\u0e21\u0e32\u0e19\u0e27\u0e31\u0e15\u0e16\u0e38 \u0e40\u0e25\u0e48\u0e21\u0e17\u0e35\u0e48 \u0e52 \u0e20\u0e32\u0e04\u0e17\u0e35\u0e48 \u0e51", 
 "pali_28": "\u0e2a\u0e38\u0e15\u0e3a\u0e15\u0e19\u0e3a\u0e15\u0e1b\u0e34\u0e0f\u0e40\u0e01 \u0e02\u0e38\u0e17\u0e3a\u0e17\u0e01\u0e19\u0e34\u0e01\u0e32\u0e22\u0e2a\u0e3a\u0e2a \u0e0a\u0e32\u0e15\u0e01\u0e4d \u0e20\u0e32\u0e04 \u0e52:\u0e1b\u0e0d\u0e3a\u0e0d\u0e32\u0e2a-\u0e21\u0e2b\u0e32\u0e19\u0e34\u0e1b\u0e32\u0e15\u0e0a\u0e32\u0e15\u0e01\u0e4d", 
 "thaimm_2": "\u0e27\u0e34\u0e19\u0e31\u0e22\u0e1b\u0e34\u0e0e\u0e01 \u0e21\u0e2b\u0e32\u0e27\u0e34\u0e20\u0e31\u0e07\u0e04\u0e4c \u0e20\u0e32\u0e04 \u0e52 \u0e1b\u0e10\u0e21\u0e20\u0e32\u0e04", 
 "thai_27": "\u0e2a\u0e38\u0e15\u0e15\u0e31\u0e19\u0e15\u0e1b\u0e34\u0e0e\u0e01 \u0e02\u0e38\u0e17\u0e17\u0e01\u0e19\u0e34\u0e01\u0e32\u0e22 \u0e0a\u0e32\u0e14\u0e01 \u0e20\u0e32\u0e04 \u0e51", 
 "thaimm_49": "\u0e2a\u0e38\u0e15\u0e15\u0e31\u0e19\u0e15\u0e1b\u0e34\u0e0e\u0e01 \u0e02\u0e38\u0e17\u0e17\u0e01\u0e19\u0e34\u0e01\u0e32\u0e22 \u0e40\u0e1b\u0e15\u0e27\u0e31\u0e15\u0e16\u0e38 \u0e40\u0e25\u0e48\u0e21\u0e17\u0e35\u0e48 \u0e52 \u0e20\u0e32\u0e04\u0e17\u0e35\u0e48 \u0e51", 
 "thaiwn_23": "\u0e2a\u0e38\u0e15\u0e15\u0e31\u0e19\u0e15\u0e1b\u0e34\u0e0e\u0e01 \u0e02\u0e38\u0e17\u0e17\u0e01\u0e19\u0e34\u0e01\u0e32\u0e22 \u0e1b\u0e0f\u0e34\u0e2a\u0e31\u0e21\u0e20\u0e34\u0e17\u0e32\u0e21\u0e23\u0e23\u0e04", 
 "thaiwn_7": "\u0e2a\u0e38\u0e15\u0e15\u0e31\u0e19\u0e15\u0e1b\u0e34\u0e0e\u0e01 \u0e2a\u0e31\u0e07\u0e22\u0e38\u0e15\u0e15\u0e19\u0e34\u0e01\u0e32\u0e22 \u0e2a\u0e04\u0e32\u0e16\u0e27\u0e23\u0e23\u0e04", 
 "thaimc_40": "\u0e2d\u0e20\u0e34\u0e18\u0e23\u0e23\u0e21\u0e1b\u0e34\u0e0e\u0e01 \u0e21\u0e2b\u0e32\u0e1b\u0e31\u0e0f\u0e10\u0e32\u0e19\u0e1b\u0e01\u0e23\u0e13\u0e4c \u0e20\u0e32\u0e04 \u0e51", 
 "thaimc_41": "\u0e2d\u0e20\u0e34\u0e18\u0e23\u0e23\u0e21\u0e1b\u0e34\u0e0e\u0e01 \u0e21\u0e2b\u0e32\u0e1b\u0e31\u0e0f\u0e10\u0e32\u0e19\u0e1b\u0e01\u0e23\u0e13\u0e4c \u0e20\u0e32\u0e04 \u0e52", 
 "thaimc_42": "\u0e2d\u0e20\u0e34\u0e18\u0e23\u0e23\u0e21\u0e1b\u0e34\u0e0e\u0e01 \u0e21\u0e2b\u0e32\u0e1b\u0e31\u0e0f\u0e10\u0e32\u0e19\u0e1b\u0e01\u0e23\u0e13\u0e4c \u0e20\u0e32\u0e04 \u0e53", 
 "thaimc_43": "\u0e2d\u0e20\u0e34\u0e18\u0e23\u0e23\u0e21\u0e1b\u0e34\u0e0e\u0e01 \u0e1b\u0e31\u0e0f\u0e10\u0e32\u0e19\u0e1b\u0e01\u0e23\u0e13\u0e4c \u0e20\u0e32\u0e04 \u0e54", 
 "thaimc_44": "\u0e2d\u0e20\u0e34\u0e18\u0e23\u0e23\u0e21\u0e1b\u0e34\u0e0e\u0e01 \u0e1b\u0e31\u0e0f\u0e10\u0e32\u0e19\u0e1b\u0e01\u0e23\u0e13\u0e4c \u0e20\u0e32\u0e04 \u0e55", 
 "thaimc_45": "\u0e2d\u0e20\u0e34\u0e18\u0e23\u0e23\u0e21\u0e1b\u0e34\u0e0e\u0e01 \u0e1b\u0e31\u0e0f\u0e10\u0e32\u0e19\u0e1b\u0e01\u0e23\u0e13\u0e4c \u0e20\u0e32\u0e04 \u0e56", 
 "thai_35": "\u0e2d\u0e20\u0e34\u0e18\u0e23\u0e23\u0e21\u0e1b\u0e34\u0e0e\u0e01 \u0e27\u0e34\u0e20\u0e31\u0e07\u0e04\u0e1b\u0e01\u0e23\u0e13\u0e4c", 
 "thai_34": "\u0e2d\u0e20\u0e34\u0e18\u0e23\u0e23\u0e21\u0e1b\u0e34\u0e0e\u0e01 \u0e18\u0e23\u0e23\u0e21\u0e2a\u0e31\u0e07\u0e04\u0e13\u0e35\u0e1b\u0e01\u0e23\u0e13\u0e4c", 
 "thaimm_18": "\u0e2a\u0e38\u0e15\u0e15\u0e31\u0e19\u0e15\u0e1b\u0e34\u0e0e\u0e01 \u0e21\u0e31\u0e0a\u0e0c\u0e34\u0e21\u0e19\u0e34\u0e01\u0e32\u0e22 \u0e21\u0e39\u0e25\u0e1b\u0e31\u0e13\u0e13\u0e32\u0e2a\u0e01\u0e4c \u0e40\u0e25\u0e48\u0e21\u0e17\u0e35\u0e48 \u0e51 \u0e20\u0e32\u0e04\u0e17\u0e35\u0e48 \u0e52", 
 "thai_39": "\u0e2d\u0e20\u0e34\u0e18\u0e23\u0e23\u0e21\u0e1b\u0e34\u0e0e\u0e01 \u0e22\u0e21\u0e01\u0e1b\u0e01\u0e23\u0e13\u0e4c \u0e20\u0e32\u0e04 \u0e52", 
 "thai_38": "\u0e2d\u0e20\u0e34\u0e18\u0e23\u0e23\u0e21\u0e1b\u0e34\u0e0e\u0e01 \u0e22\u0e21\u0e01\u0e1b\u0e01\u0e23\u0e13\u0e4c \u0e20\u0e32\u0e04 \u0e51", 
 "thaims_19": "\u0e2a\u0e38\u0e15\u0e15\u0e31\u0e19\u0e15\u0e1b\u0e34\u0e0e\u0e01 \u0e2a\u0e31\u0e07\u0e22\u0e38\u0e15\u0e15\u0e19\u0e34\u0e01\u0e32\u0e22 \u0e21\u0e2b\u0e32\u0e27\u0e32\u0e23\u0e27\u0e23\u0e23\u0e04", 
 "thaims_35": "\u0e2d\u0e20\u0e34\u0e18\u0e23\u0e23\u0e21\u0e1b\u0e34\u0e0e\u0e01 \u0e27\u0e34\u0e20\u0e31\u0e07\u0e04\u0e1b\u0e01\u0e23\u0e13\u0e4c", 
 "thaimc_7": "\u0e27\u0e34\u0e19\u0e31\u0e22\u0e1b\u0e34\u0e0e\u0e01 \u0e08\u0e38\u0e25\u0e27\u0e23\u0e23\u0e04 \u0e20\u0e32\u0e04 \u0e52", 
 "thaims_37": "\u0e2d\u0e20\u0e34\u0e18\u0e23\u0e23\u0e21\u0e1b\u0e34\u0e0e\u0e01 \u0e01\u0e16\u0e32\u0e27\u0e31\u0e15\u0e16\u0e38\u0e1b\u0e01\u0e23\u0e13\u0e4c", 
 "thaims_36": "\u0e2d\u0e20\u0e34\u0e18\u0e23\u0e23\u0e21\u0e1b\u0e34\u0e0e\u0e01 \u0e18\u0e32\u0e15\u0e38\u0e01\u0e16\u0e32-\u0e1b\u0e38\u0e04\u0e04\u0e25\u0e1a\u0e31\u0e0d\u0e0d\u0e31\u0e15\u0e34\u0e1b\u0e01\u0e23\u0e13\u0e4c", 
 "thaims_31": "\u0e2a\u0e38\u0e15\u0e15\u0e31\u0e19\u0e15\u0e1b\u0e34\u0e0e\u0e01 \u0e02\u0e38\u0e17\u0e17\u0e01\u0e19\u0e34\u0e01\u0e32\u0e22 \u0e1b\u0e0f\u0e34\u0e2a\u0e31\u0e21\u0e20\u0e34\u0e17\u0e32\u0e21\u0e23\u0e23\u0e04", 
 "thaims_30": "\u0e2a\u0e38\u0e15\u0e15\u0e31\u0e19\u0e15\u0e1b\u0e34\u0e0e\u0e01 \u0e02\u0e38\u0e17\u0e17\u0e01\u0e19\u0e34\u0e01\u0e32\u0e22 \u0e08\u0e39\u0e2c\u0e19\u0e34\u0e17\u0e40\u0e17\u0e2a", 
 "thaimm_79": "\u0e2d\u0e20\u0e34\u0e18\u0e23\u0e23\u0e21\u0e1b\u0e34\u0e0e\u0e01 \u0e18\u0e32\u0e15\u0e38\u0e01\u0e16\u0e32 \u0e41\u0e25\u0e30 \u0e1b\u0e38\u0e04\u0e04\u0e25\u0e1b\u0e31\u0e0d\u0e0d\u0e31\u0e15\u0e34", 
 "thaims_32": "\u0e2a\u0e38\u0e15\u0e15\u0e31\u0e19\u0e15\u0e1b\u0e34\u0e0e\u0e01 \u0e02\u0e38\u0e17\u0e17\u0e01\u0e19\u0e34\u0e01\u0e32\u0e22 \u0e2d\u0e1b\u0e17\u0e32\u0e19 \u0e20\u0e32\u0e04 \u0e51", 
 "thaimm_77": "\u0e2d\u0e20\u0e34\u0e18\u0e23\u0e23\u0e21\u0e1b\u0e34\u0e0e\u0e01 \u0e27\u0e34\u0e20\u0e31\u0e07\u0e04\u0e4c \u0e20\u0e32\u0e04\u0e17\u0e35\u0e48 \u0e51", 
 "thaimm_76": "\u0e2d\u0e20\u0e34\u0e18\u0e23\u0e23\u0e21\u0e1b\u0e34\u0e0e\u0e01 \u0e18\u0e23\u0e23\u0e21\u0e2a\u0e31\u0e07\u0e04\u0e13\u0e35 \u0e20\u0e32\u0e04\u0e17\u0e35\u0e48 \u0e52", 
 "thaimm_75": "\u0e2d\u0e20\u0e34\u0e18\u0e23\u0e23\u0e21\u0e1b\u0e34\u0e0e\u0e01 \u0e18\u0e23\u0e23\u0e21\u0e2a\u0e31\u0e07\u0e04\u0e13\u0e35 \u0e20\u0e32\u0e04\u0e17\u0e35\u0e48 \u0e51", 
 "thaimm_74": "\u0e2a\u0e38\u0e15\u0e15\u0e31\u0e19\u0e15\u0e1b\u0e34\u0e0e\u0e01 \u0e02\u0e38\u0e17\u0e17\u0e01\u0e19\u0e34\u0e01\u0e32\u0e22 \u0e1e\u0e38\u0e17\u0e18\u0e27\u0e07\u0e28\u0e4c \u0e40\u0e25\u0e48\u0e21\u0e17\u0e35\u0e48 \u0e59 \u0e20\u0e32\u0e04\u0e17\u0e35\u0e48 \u0e52 (\u0e15\u0e48\u0e2d)", 
 "thaimm_73": "\u0e2a\u0e38\u0e15\u0e15\u0e31\u0e19\u0e15\u0e1b\u0e34\u0e0e\u0e01 \u0e02\u0e38\u0e17\u0e17\u0e01\u0e19\u0e34\u0e01\u0e32\u0e22 \u0e1e\u0e38\u0e17\u0e18\u0e27\u0e07\u0e28\u0e4c \u0e40\u0e25\u0e48\u0e21\u0e17\u0e35\u0e48 \u0e59 \u0e20\u0e32\u0e04\u0e17\u0e35\u0e48 \u0e52", 
 "thaimm_72": "\u0e2a\u0e38\u0e15\u0e15\u0e31\u0e19\u0e15\u0e1b\u0e34\u0e0e\u0e01 \u0e02\u0e38\u0e17\u0e17\u0e01\u0e19\u0e34\u0e01\u0e32\u0e22 \u0e2d\u0e1b\u0e17\u0e32\u0e19 \u0e40\u0e25\u0e48\u0e21\u0e17\u0e35\u0e48 \u0e59", 
 "thaimm_71": "\u0e2a\u0e38\u0e15\u0e15\u0e31\u0e19\u0e15\u0e1b\u0e34\u0e0e\u0e01 \u0e02\u0e38\u0e17\u0e17\u0e01\u0e19\u0e34\u0e01\u0e32\u0e22 \u0e2d\u0e1b\u0e17\u0e32\u0e19 \u0e40\u0e25\u0e48\u0e21\u0e17\u0e35\u0e48 \u0e58 \u0e20\u0e32\u0e04\u0e17\u0e35\u0e48 \u0e52", 
 "thaimm_70": "\u0e2a\u0e38\u0e15\u0e15\u0e31\u0e19\u0e15\u0e1b\u0e34\u0e0e\u0e01 \u0e02\u0e38\u0e17\u0e17\u0e01\u0e19\u0e34\u0e01\u0e32\u0e22 \u0e2d\u0e1b\u0e17\u0e32\u0e19 \u0e40\u0e25\u0e48\u0e21\u0e17\u0e35\u0e48 \u0e58 \u0e20\u0e32\u0e04\u0e17\u0e35\u0e48 \u0e51", 
 "thaiwn_11": "\u0e2a\u0e38\u0e15\u0e15\u0e31\u0e19\u0e15\u0e1b\u0e34\u0e0e\u0e01 \u0e2a\u0e31\u0e07\u0e22\u0e38\u0e15\u0e15\u0e19\u0e34\u0e01\u0e32\u0e22 \u0e21\u0e2b\u0e32\u0e27\u0e32\u0e23\u0e27\u0e23\u0e23\u0e04", 
 "thaims_21": "\u0e2a\u0e38\u0e15\u0e15\u0e31\u0e19\u0e15\u0e1b\u0e34\u0e0e\u0e01 \u0e2d\u0e31\u0e07\u0e04\u0e38\u0e15\u0e15\u0e23\u0e19\u0e34\u0e01\u0e32\u0e22 \u0e08\u0e15\u0e38\u0e01\u0e01\u0e19\u0e34\u0e1a\u0e32\u0e15", 
 "thaimm_41": "\u0e2a\u0e38\u0e15\u0e15\u0e31\u0e19\u0e15\u0e1b\u0e34\u0e0e\u0e01 \u0e02\u0e38\u0e17\u0e17\u0e01\u0e19\u0e34\u0e01\u0e32\u0e22 \u0e04\u0e32\u0e16\u0e32\u0e18\u0e23\u0e23\u0e21\u0e1a\u0e17 \u0e40\u0e25\u0e48\u0e21\u0e17\u0e35\u0e48 \u0e51 \u0e20\u0e32\u0e04\u0e17\u0e35\u0e48 \u0e52", 
 "thai_\ufeff": "", 
 "thaimm_46": "\u0e2a\u0e38\u0e15\u0e15\u0e31\u0e19\u0e15\u0e1b\u0e34\u0e0e\u0e01 \u0e02\u0e38\u0e17\u0e17\u0e01\u0e19\u0e34\u0e01\u0e32\u0e22 \u0e2a\u0e38\u0e15\u0e15\u0e19\u0e34\u0e1a\u0e32\u0e15 \u0e40\u0e25\u0e48\u0e21\u0e17\u0e35\u0e48 \u0e51 \u0e20\u0e32\u0e04\u0e17\u0e35\u0e48 \u0e55", 
 "thaimc_21": "\u0e2a\u0e38\u0e15\u0e15\u0e31\u0e19\u0e15\u0e1b\u0e34\u0e0e\u0e01 \u0e2d\u0e31\u0e07\u0e04\u0e38\u0e15\u0e15\u0e23\u0e19\u0e34\u0e01\u0e32\u0e22 \u0e08\u0e15\u0e38\u0e01\u0e01\u0e19\u0e34\u0e1a\u0e32\u0e15", 
 "thaimm_47": "\u0e2a\u0e38\u0e15\u0e15\u0e31\u0e19\u0e15\u0e1b\u0e34\u0e0e\u0e01 \u0e02\u0e38\u0e17\u0e17\u0e01\u0e19\u0e34\u0e01\u0e32\u0e22 \u0e2a\u0e38\u0e15\u0e15\u0e19\u0e34\u0e1a\u0e32\u0e15\u0e51 \u0e40\u0e25\u0e48\u0e21\u0e17\u0e35\u0e48 \u0e51 \u0e20\u0e32\u0e04\u0e17\u0e35\u0e48 \u0e56", 
 "thaimm_78": "\u0e2d\u0e20\u0e34\u0e18\u0e23\u0e23\u0e21\u0e1b\u0e34\u0e0e\u0e01 \u0e27\u0e34\u0e20\u0e31\u0e07\u0e04\u0e4c \u0e20\u0e32\u0e04\u0e17\u0e35\u0e48 \u0e52", 
 "thai_15": "\u0e2a\u0e38\u0e15\u0e15\u0e31\u0e19\u0e15\u0e1b\u0e34\u0e0e\u0e01 \u0e2a\u0e31\u0e07\u0e22\u0e38\u0e15\u0e15\u0e19\u0e34\u0e01\u0e32\u0e22 \u0e2a\u0e04\u0e32\u0e16\u0e27\u0e23\u0e23\u0e04", 
 "thaipb_1": "\u0e1e\u0e38\u0e17\u0e18\u0e27\u0e08\u0e19 \u0e15\u0e32\u0e21\u0e23\u0e2d\u0e22\u0e18\u0e23\u0e23\u0e21", 
 "thaimm_44": "\u0e2a\u0e38\u0e15\u0e15\u0e31\u0e19\u0e15\u0e1b\u0e34\u0e0e\u0e01 \u0e02\u0e38\u0e17\u0e17\u0e01\u0e19\u0e34\u0e01\u0e32\u0e22 \u0e2d\u0e38\u0e17\u0e32\u0e19 \u0e40\u0e25\u0e48\u0e21\u0e17\u0e35\u0e48 \u0e51 \u0e20\u0e32\u0e04\u0e17\u0e35\u0e48 \u0e53", 
 "thaims_12": "\u0e2a\u0e38\u0e15\u0e15\u0e31\u0e19\u0e15\u0e1b\u0e34\u0e0e\u0e01 \u0e21\u0e31\u0e0a\u0e0c\u0e34\u0e21\u0e19\u0e34\u0e01\u0e32\u0e22 \u0e21\u0e39\u0e25\u0e1b\u0e31\u0e13\u0e13\u0e32\u0e2a\u0e01\u0e4c", 
 "thaims_20": "\u0e2a\u0e38\u0e15\u0e15\u0e31\u0e19\u0e15\u0e1b\u0e34\u0e0e\u0e01 \u0e2d\u0e31\u0e07\u0e04\u0e38\u0e15\u0e15\u0e23\u0e19\u0e34\u0e01\u0e32\u0e22 \u0e40\u0e2d\u0e01-\u0e17\u0e38\u0e01-\u0e15\u0e34\u0e01\u0e19\u0e34\u0e1a\u0e32\u0e15", 
 "thaims_11": "\u0e2a\u0e38\u0e15\u0e15\u0e31\u0e19\u0e15\u0e1b\u0e34\u0e0e\u0e01 \u0e17\u0e35\u0e06\u0e19\u0e34\u0e01\u0e32\u0e22 \u0e1b\u0e32\u0e0f\u0e34\u0e01\u0e27\u0e23\u0e23\u0e04", 
 "thaimc_35": "\u0e2d\u0e20\u0e34\u0e18\u0e23\u0e23\u0e21\u0e1b\u0e34\u0e0e\u0e01 \u0e27\u0e34\u0e20\u0e31\u0e07\u0e04\u0e1b\u0e01\u0e23\u0e13\u0e4c", 
 "thaimc_34": "\u0e2d\u0e20\u0e34\u0e18\u0e23\u0e23\u0e21\u0e1b\u0e34\u0e0e\u0e01 \u0e18\u0e23\u0e23\u0e21\u0e2a\u0e31\u0e07\u0e04\u0e13\u0e35\u0e1b\u0e01\u0e23\u0e13\u0e4c", 
 "thaimc_37": "\u0e2d\u0e20\u0e34\u0e18\u0e23\u0e23\u0e21\u0e1b\u0e34\u0e0e\u0e01 \u0e01\u0e16\u0e32\u0e27\u0e31\u0e15\u0e16\u0e38\u0e1b\u0e01\u0e23\u0e13\u0e4c", 
 "thai_23": "\u0e2a\u0e38\u0e15\u0e15\u0e31\u0e19\u0e15\u0e1b\u0e34\u0e0e\u0e01 \u0e2d\u0e31\u0e07\u0e04\u0e38\u0e15\u0e15\u0e23\u0e19\u0e34\u0e01\u0e32\u0e22 \u0e2a\u0e31\u0e15\u0e15\u0e01-\u0e2d\u0e31\u0e0f\u0e10\u0e01-\u0e19\u0e27\u0e01\u0e19\u0e34\u0e1a\u0e32\u0e15", 
 "thai_24": "\u0e2a\u0e38\u0e15\u0e15\u0e31\u0e19\u0e15\u0e1b\u0e34\u0e0e\u0e01 \u0e2d\u0e31\u0e07\u0e04\u0e38\u0e15\u0e15\u0e23\u0e19\u0e34\u0e01\u0e32\u0e22 \u0e17\u0e2a\u0e01-\u0e40\u0e2d\u0e01\u0e32\u0e17\u0e2a\u0e01\u0e19\u0e34\u0e1a\u0e32\u0e15", 
 "thaimm_88": "\u0e2d\u0e20\u0e34\u0e18\u0e23\u0e23\u0e21\u0e1b\u0e34\u0e0e\u0e01 \u0e1b\u0e31\u0e0f\u0e10\u0e32\u0e19 \u0e20\u0e32\u0e04\u0e17\u0e35\u0e48 \u0e54", 
 "thai_26": "\u0e2a\u0e38\u0e15\u0e15\u0e31\u0e19\u0e15\u0e1b\u0e34\u0e0e\u0e01 \u0e02\u0e38\u0e17\u0e17\u0e01\u0e19\u0e34\u0e01\u0e32\u0e22 \u0e27\u0e34\u0e21\u0e32\u0e19-\u0e40\u0e1b\u0e15\u0e27\u0e31\u0e15\u0e16\u0e38 \u0e40\u0e16\u0e23-\u0e40\u0e16\u0e23\u0e35\u0e04\u0e32\u0e16\u0e32", 
 "thaimm_67": "\u0e2a\u0e38\u0e15\u0e15\u0e31\u0e19\u0e15\u0e1b\u0e34\u0e0e\u0e01 \u0e02\u0e38\u0e17\u0e17\u0e01\u0e19\u0e34\u0e01\u0e32\u0e22 \u0e08\u0e39\u0e2c\u0e19\u0e34\u0e17\u0e40\u0e17\u0e2a \u0e40\u0e25\u0e48\u0e21\u0e17\u0e35\u0e48 \u0e56", 
 "thai_30": "\u0e2a\u0e38\u0e15\u0e15\u0e31\u0e19\u0e15\u0e1b\u0e34\u0e0e\u0e01 \u0e02\u0e38\u0e17\u0e17\u0e01\u0e19\u0e34\u0e01\u0e32\u0e22 \u0e08\u0e39\u0e2c\u0e19\u0e34\u0e17\u0e40\u0e17\u0e2a", 
 "thaims_3": "\u0e27\u0e34\u0e19\u0e31\u0e22\u0e1b\u0e34\u0e0e\u0e01 \u0e20\u0e34\u0e01\u0e02\u0e38\u0e19\u0e35\u0e27\u0e34\u0e20\u0e31\u0e07\u0e04\u0e4c", 
 "thaimm_89": "\u0e2d\u0e20\u0e34\u0e18\u0e23\u0e23\u0e21\u0e1b\u0e34\u0e0e\u0e01 \u0e1b\u0e31\u0e0f\u0e10\u0e32\u0e19 \u0e20\u0e32\u0e04\u0e17\u0e35\u0e48 \u0e55", 
 "thaimc_39": "\u0e2d\u0e20\u0e34\u0e18\u0e23\u0e23\u0e21\u0e1b\u0e34\u0e0e\u0e01 \u0e22\u0e21\u0e01\u0e1b\u0e01\u0e23\u0e13\u0e4c \u0e20\u0e32\u0e04 \u0e52", 
 "thaimc_38": "\u0e2d\u0e20\u0e34\u0e18\u0e23\u0e23\u0e21\u0e1b\u0e34\u0e0e\u0e01 \u0e22\u0e21\u0e01\u0e1b\u0e01\u0e23\u0e13\u0e4c \u0e20\u0e32\u0e04 \u0e51", 
 "thaims_16": "\u0e2a\u0e38\u0e15\u0e15\u0e31\u0e19\u0e15\u0e1b\u0e34\u0e0e\u0e01 \u0e2a\u0e31\u0e07\u0e22\u0e38\u0e15\u0e15\u0e19\u0e34\u0e01\u0e32\u0e22 \u0e19\u0e34\u0e17\u0e32\u0e19\u0e27\u0e23\u0e23\u0e04", 
 "thaims_26": "\u0e2a\u0e38\u0e15\u0e15\u0e31\u0e19\u0e15\u0e1b\u0e34\u0e0e\u0e01 \u0e02\u0e38\u0e17\u0e17\u0e01\u0e19\u0e34\u0e01\u0e32\u0e22 \u0e27\u0e34\u0e21\u0e32\u0e19-\u0e40\u0e1b\u0e15\u0e27\u0e31\u0e15\u0e16\u0e38 \u0e40\u0e16\u0e23-\u0e40\u0e16\u0e23\u0e35\u0e04\u0e32\u0e16\u0e32", 
 "pali_17": "\u0e2a\u0e38\u0e15\u0e3a\u0e15\u0e19\u0e3a\u0e15\u0e1b\u0e34\u0e0f\u0e40\u0e01 \u0e2a\u0e4d\u0e22\u0e38\u0e15\u0e3a\u0e15\u0e19\u0e34\u0e01\u0e32\u0e22\u0e2a\u0e3a\u0e2a \u0e02\u0e19\u0e3a\u0e18\u0e27\u0e32\u0e23\u0e27\u0e04\u0e3a\u0e42\u0e04", 
 "thaimm_62": "\u0e2a\u0e38\u0e15\u0e15\u0e31\u0e19\u0e15\u0e1b\u0e34\u0e0e\u0e01 \u0e02\u0e38\u0e17\u0e17\u0e01\u0e19\u0e34\u0e01\u0e32\u0e22 \u0e0a\u0e32\u0e14\u0e01 \u0e40\u0e25\u0e48\u0e21\u0e17\u0e35\u0e48 \u0e54 \u0e20\u0e32\u0e04\u0e17\u0e35\u0e48 \u0e51", 
 "thaimm_63": "\u0e2a\u0e38\u0e15\u0e15\u0e31\u0e19\u0e15\u0e1b\u0e34\u0e0e\u0e01 \u0e02\u0e38\u0e17\u0e17\u0e01\u0e19\u0e34\u0e01\u0e32\u0e22 \u0e0a\u0e32\u0e14\u0e01 \u0e40\u0e25\u0e48\u0e21\u0e17\u0e35\u0e48 \u0e54 \u0e20\u0e32\u0e04\u0e17\u0e35\u0e48 \u0e52", 
 "thaims_22": "\u0e2a\u0e38\u0e15\u0e15\u0e31\u0e19\u0e15\u0e1b\u0e34\u0e0e\u0e01 \u0e2d\u0e31\u0e07\u0e04\u0e38\u0e15\u0e15\u0e23\u0e19\u0e34\u0e01\u0e32\u0e22 \u0e1b\u0e31\u0e0d\u0e08\u0e01-\u0e09\u0e31\u0e01\u0e01\u0e19\u0e34\u0e1a\u0e32\u0e15", 
 "thaimm_65": "\u0e2a\u0e38\u0e15\u0e15\u0e31\u0e19\u0e15\u0e1b\u0e34\u0e0e\u0e01 \u0e02\u0e38\u0e17\u0e17\u0e01\u0e19\u0e34\u0e01\u0e32\u0e22 \u0e21\u0e2b\u0e32\u0e19\u0e34\u0e17\u0e40\u0e17\u0e2a \u0e40\u0e25\u0e48\u0e21\u0e17\u0e35\u0e48 \u0e55 \u0e20\u0e32\u0e04\u0e17\u0e35\u0e48 \u0e51", 
 "thaiwn_2": "\u0e2a\u0e38\u0e15\u0e15\u0e31\u0e19\u0e15\u0e1b\u0e34\u0e0e\u0e01 \u0e17\u0e35\u0e06\u0e19\u0e34\u0e01\u0e32\u0e22 \u0e21\u0e2b\u0e32\u0e27\u0e23\u0e23\u0e04", 
 "thaiwn_3": "\u0e2a\u0e38\u0e15\u0e15\u0e31\u0e19\u0e15\u0e1b\u0e34\u0e0e\u0e01 \u0e17\u0e35\u0e06\u0e19\u0e34\u0e01\u0e32\u0e22 \u0e1b\u0e32\u0e0f\u0e34\u0e01\u0e27\u0e23\u0e23\u0e04", 
 "thaimm_68": "\u0e2a\u0e38\u0e15\u0e15\u0e31\u0e19\u0e15\u0e1b\u0e34\u0e0e\u0e01 \u0e02\u0e38\u0e17\u0e17\u0e01\u0e19\u0e34\u0e01\u0e32\u0e22 \u0e1b\u0e0f\u0e34\u0e2a\u0e31\u0e21\u0e20\u0e34\u0e17\u0e32\u0e21\u0e23\u0e23\u0e04 \u0e40\u0e25\u0e48\u0e21\u0e17\u0e35\u0e48 \u0e57 \u0e20\u0e32\u0e04\u0e17\u0e35\u0e48 \u0e51", 
 "thaimm_69": "\u0e2a\u0e38\u0e15\u0e15\u0e31\u0e19\u0e15\u0e1b\u0e34\u0e0e\u0e01 \u0e02\u0e38\u0e17\u0e17\u0e01\u0e19\u0e34\u0e01\u0e32\u0e22 \u0e1b\u0e0f\u0e34\u0e2a\u0e31\u0e21\u0e20\u0e34\u0e17\u0e32\u0e21\u0e23\u0e23\u0e04 \u0e40\u0e25\u0e48\u0e21\u0e17\u0e35\u0e48 \u0e57 \u0e20\u0e32\u0e04\u0e17\u0e35\u0e48 \u0e52", 
 "pali_5": "\u0e27\u0e34\u0e19\u0e22\u0e1b\u0e34\u0e0f\u0e40\u0e01 \u0e21\u0e2b\u0e32\u0e27\u0e04\u0e3a\u0e42\u0e04 \u0e20\u0e32\u0e04 \u0e52", 
 "pali_4": "\u0e27\u0e34\u0e19\u0e22\u0e1b\u0e34\u0e0f\u0e40\u0e01 \u0e21\u0e2b\u0e32\u0e27\u0e04\u0e3a\u0e42\u0e04 \u0e20\u0e32\u0e04 \u0e51", 
 "pali_3": "\u0e27\u0e34\u0e19\u0e22\u0e1b\u0e34\u0e0f\u0e40\u0e01 \u0e20\u0e34\u0e01\u0e3a\u0e02\u0e38\u0e19\u0e35\u0e27\u0e34\u0e20\u0e07\u0e3a\u0e42\u0e04", 
 "pali_2": "\u0e27\u0e34\u0e19\u0e22\u0e1b\u0e34\u0e0f\u0e40\u0e01 \u0e21\u0e2b\u0e32\u0e27\u0e34\u0e20\u0e07\u0e3a\u0e42\u0e04 \u0e20\u0e32\u0e04 \u0e52", 
 "pali_1": "\u0e27\u0e34\u0e19\u0e22\u0e1b\u0e34\u0e0f\u0e40\u0e01 \u0e21\u0e2b\u0e32\u0e27\u0e34\u0e20\u0e07\u0e3a\u0e42\u0e04 \u0e20\u0e32\u0e04 \u0e51", 
 "thaimm_8": "\u0e27\u0e34\u0e19\u0e31\u0e22\u0e1b\u0e34\u0e0e\u0e01 \u0e08\u0e38\u0e25\u0e27\u0e23\u0e23\u0e04 \u0e1b\u0e10\u0e21\u0e20\u0e32\u0e04", 
 "pali_40": "\u0e2d\u0e20\u0e34\u0e18\u0e21\u0e3a\u0e21\u0e1b\u0e34\u0e0f\u0e40\u0e01 \u0e1b\u0e0f\u0e3a\u0e10\u0e32\u0e19\u0e4d \u0e20\u0e32\u0e04 \u0e51 \u0e2d\u0e19\u0e38\u0e42\u0e25\u0e21\u0e15\u0e34\u0e01\u0e1b\u0e0f\u0e3a\u0e10\u0e32\u0e19\u0e4d \u0e1b\u0e38\u0e23\u0e34\u0e21\u0e4d", 
 "pali_41": "\u0e2d\u0e20\u0e34\u0e18\u0e21\u0e3a\u0e21\u0e1b\u0e34\u0e0f\u0e40\u0e01 \u0e1b\u0e0f\u0e3a\u0e10\u0e32\u0e19\u0e4d \u0e20\u0e32\u0e04 \u0e52 \u0e2d\u0e19\u0e38\u0e42\u0e25\u0e21\u0e15\u0e34\u0e01\u0e1b\u0e0f\u0e3a\u0e10\u0e32\u0e19\u0e4d \u0e1b\u0e08\u0e3a\u0e09\u0e34\u0e21\u0e4d", 
 "pali_42": "\u0e2d\u0e20\u0e34\u0e18\u0e21\u0e3a\u0e21\u0e1b\u0e34\u0e0f\u0e40\u0e01 \u0e1b\u0e0f\u0e3a\u0e10\u0e32\u0e19\u0e4d \u0e20\u0e32\u0e04 \u0e53 \u0e2d\u0e19\u0e38\u0e42\u0e25\u0e21\u0e17\u0e38\u0e01\u0e1b\u0e0f\u0e3a\u0e10\u0e32\u0e19\u0e4d \u0e1b\u0e38\u0e23\u0e34\u0e21\u0e4d", 
 "pali_43": "\u0e2d\u0e20\u0e34\u0e18\u0e21\u0e3a\u0e21\u0e1b\u0e34\u0e0f\u0e40\u0e01 \u0e1b\u0e0f\u0e3a\u0e10\u0e32\u0e19\u0e4d \u0e20\u0e32\u0e04 \u0e54 \u0e2d\u0e19\u0e38\u0e42\u0e25\u0e21\u0e17\u0e38\u0e01\u0e1b\u0e0f\u0e3a\u0e10\u0e32\u0e19\u0e4d \u0e1b\u0e08\u0e3a\u0e09\u0e34\u0e21\u0e4d", 
 "pali_44": "\u0e2d\u0e20\u0e34\u0e18\u0e21\u0e3a\u0e21\u0e1b\u0e34\u0e0f\u0e40\u0e01 \u0e1b\u0e0f\u0e3a\u0e10\u0e32\u0e19\u0e4d \u0e20\u0e32\u0e04 \u0e55 \u0e2d\u0e19\u0e38\u0e42\u0e25\u0e21\u0e17\u0e38\u0e01\u0e15\u0e3a\u0e15\u0e34\u0e01\u0e1b\u0e0f\u0e10\u0e32\u0e19\u0e4d", 
 "pali_45": "\u0e2d\u0e20\u0e34\u0e18\u0e21\u0e3a\u0e21\u0e1b\u0e34\u0e0f\u0e40\u0e01 \u0e1b\u0e0f\u0e3a\u0e10\u0e32\u0e19\u0e4d \u0e20\u0e32\u0e04 \u0e56 \u0e1b\u0e08\u0e3a\u0e08\u0e19\u0e35\u0e22-\u0e2d\u0e19\u0e38\u0e42\u0e25\u0e21\u0e1b\u0e08\u0e3a\u0e08\u0e19\u0e35\u0e22-\u0e1b\u0e08\u0e3a\u0e08\u0e19\u0e35\u0e22\u0e32\u0e19\u0e38\u0e42\u0e25\u0e21", 
 "thaiwn_18": "\u0e2a\u0e38\u0e15\u0e15\u0e31\u0e19\u0e15\u0e1b\u0e34\u0e0e\u0e01 \u0e02\u0e38\u0e17\u0e17\u0e01\u0e19\u0e34\u0e01\u0e32\u0e22 \u0e27\u0e34\u0e21\u0e32\u0e19-\u0e40\u0e1b\u0e15\u0e27\u0e31\u0e15\u0e16\u0e38 \u0e40\u0e16\u0e23-\u0e40\u0e16\u0e23\u0e35\u0e04\u0e32\u0e16\u0e32", 
 "thaiwn_19": "\u0e2a\u0e38\u0e15\u0e15\u0e31\u0e19\u0e15\u0e1b\u0e34\u0e0e\u0e01 \u0e02\u0e38\u0e17\u0e17\u0e01\u0e19\u0e34\u0e01\u0e32\u0e22 \u0e0a\u0e32\u0e14\u0e01 \u0e20\u0e32\u0e04 \u0e51", 
 "thaiwn_16": "\u0e2a\u0e38\u0e15\u0e15\u0e31\u0e19\u0e15\u0e1b\u0e34\u0e0e\u0e01 \u0e2d\u0e31\u0e07\u0e04\u0e38\u0e15\u0e15\u0e23\u0e19\u0e34\u0e01\u0e32\u0e22 \u0e17\u0e2a\u0e01-\u0e40\u0e2d\u0e01\u0e32\u0e17\u0e2a\u0e01\u0e19\u0e34\u0e1a\u0e32\u0e15", 
 "pali_13": "\u0e2a\u0e38\u0e15\u0e3a\u0e15\u0e19\u0e3a\u0e15\u0e1b\u0e34\u0e0f\u0e40\u0e01 \u0e21\u0e0a\u0e3a\u0e0c\u0e34\u0e21\u0e19\u0e34\u0e01\u0e32\u0e22\u0e2a\u0e3a\u0e2a \u0e21\u0e0a\u0e3a\u0e0c\u0e34\u0e21\u0e1b\u0e13\u0e3a\u0e13\u0e32\u0e2a\u0e01\u0e4d", 
 "thaiwn_14": "\u0e2a\u0e38\u0e15\u0e15\u0e31\u0e19\u0e15\u0e1b\u0e34\u0e0e\u0e01 \u0e2d\u0e31\u0e07\u0e04\u0e38\u0e15\u0e15\u0e23\u0e19\u0e34\u0e01\u0e32\u0e22 \u0e1b\u0e31\u0e0d\u0e08\u0e01-\u0e09\u0e31\u0e01\u0e01\u0e19\u0e34\u0e1a\u0e32\u0e15", 
 "thaiwn_15": "\u0e2a\u0e38\u0e15\u0e15\u0e31\u0e19\u0e15\u0e1b\u0e34\u0e0e\u0e01 \u0e2d\u0e31\u0e07\u0e04\u0e38\u0e15\u0e15\u0e23\u0e19\u0e34\u0e01\u0e32\u0e22 \u0e2a\u0e31\u0e15\u0e15\u0e01-\u0e2d\u0e31\u0e0f\u0e10\u0e01-\u0e19\u0e27\u0e01\u0e19\u0e34\u0e1a\u0e32\u0e15", 
 "thaiwn_12": "\u0e2a\u0e38\u0e15\u0e15\u0e31\u0e19\u0e15\u0e1b\u0e34\u0e0e\u0e01 \u0e2d\u0e31\u0e07\u0e04\u0e38\u0e15\u0e15\u0e23\u0e19\u0e34\u0e01\u0e32\u0e22 \u0e40\u0e2d\u0e01-\u0e17\u0e38\u0e01-\u0e15\u0e34\u0e01\u0e19\u0e34\u0e1a\u0e32\u0e15", 
 "thaiwn_13": "\u0e2a\u0e38\u0e15\u0e15\u0e31\u0e19\u0e15\u0e1b\u0e34\u0e0e\u0e01 \u0e2d\u0e31\u0e07\u0e04\u0e38\u0e15\u0e15\u0e23\u0e19\u0e34\u0e01\u0e32\u0e22 \u0e08\u0e15\u0e38\u0e01\u0e01\u0e19\u0e34\u0e1a\u0e32\u0e15", 
 "thaiwn_10": "\u0e2a\u0e38\u0e15\u0e15\u0e31\u0e19\u0e15\u0e1b\u0e34\u0e0e\u0e01 \u0e2a\u0e31\u0e07\u0e22\u0e38\u0e15\u0e15\u0e19\u0e34\u0e01\u0e32\u0e22 \u0e2a\u0e2c\u0e32\u0e22\u0e15\u0e19\u0e27\u0e23\u0e23\u0e04", 
 "thaimm_83": "\u0e2d\u0e20\u0e34\u0e18\u0e23\u0e23\u0e21\u0e1b\u0e34\u0e0e\u0e01 \u0e22\u0e21\u0e01 \u0e20\u0e32\u0e04\u0e17\u0e35\u0e48 \u0e51 \u0e15\u0e2d\u0e19\u0e17\u0e35\u0e48 \u0e52", 
 "thaimm_3": "\u0e27\u0e34\u0e19\u0e31\u0e22\u0e1b\u0e34\u0e0e\u0e01 \u0e21\u0e2b\u0e32\u0e27\u0e34\u0e20\u0e31\u0e07\u0e04\u0e4c \u0e20\u0e32\u0e04 \u0e53 \u0e1b\u0e10\u0e21\u0e20\u0e32\u0e04", 
 "pali_12": "\u0e2a\u0e38\u0e15\u0e3a\u0e15\u0e19\u0e3a\u0e15\u0e1b\u0e34\u0e0f\u0e40\u0e01 \u0e21\u0e0a\u0e3a\u0e0c\u0e34\u0e21\u0e19\u0e34\u0e01\u0e32\u0e22\u0e2a\u0e3a\u0e2a \u0e21\u0e39\u0e25\u0e1b\u0e13\u0e3a\u0e13\u0e32\u0e2a\u0e01\u0e4d", 
 "thaimc_15": "\u0e2a\u0e38\u0e15\u0e15\u0e31\u0e19\u0e15\u0e1b\u0e34\u0e0e\u0e01 \u0e2a\u0e31\u0e07\u0e22\u0e38\u0e15\u0e15\u0e19\u0e34\u0e01\u0e32\u0e22 \u0e2a\u0e04\u0e32\u0e16\u0e27\u0e23\u0e23\u0e04", 
 "thaiwn_33": "\u0e27\u0e34\u0e19\u0e31\u0e22\u0e1b\u0e34\u0e0e\u0e01 \u0e1b\u0e23\u0e34\u0e27\u0e32\u0e23", 
 "thai_19": "\u0e2a\u0e38\u0e15\u0e15\u0e31\u0e19\u0e15\u0e1b\u0e34\u0e0e\u0e01 \u0e2a\u0e31\u0e07\u0e22\u0e38\u0e15\u0e15\u0e19\u0e34\u0e01\u0e32\u0e22 \u0e21\u0e2b\u0e32\u0e27\u0e32\u0e23\u0e27\u0e23\u0e23\u0e04", 
 "thai_11": "\u0e2a\u0e38\u0e15\u0e15\u0e31\u0e19\u0e15\u0e1b\u0e34\u0e0e\u0e01 \u0e17\u0e35\u0e06\u0e19\u0e34\u0e01\u0e32\u0e22 \u0e1b\u0e32\u0e0f\u0e34\u0e01\u0e27\u0e23\u0e23\u0e04", 
 "pali_10": "\u0e2a\u0e38\u0e15\u0e3a\u0e15\u0e19\u0e3a\u0e15\u0e1b\u0e34\u0e0f\u0e40\u0e01 \u0e17\u0e35\u0e06\u0e19\u0e34\u0e01\u0e32\u0e22\u0e2a\u0e3a\u0e2a \u0e21\u0e2b\u0e32\u0e27\u0e04\u0e3a\u0e42\u0e04", 
 "thaipb_2": "\u0e1e\u0e38\u0e17\u0e18\u0e27\u0e08\u0e19 \u0e04\u0e39\u0e48\u0e21\u0e37\u0e2d\u0e42\u0e2a\u0e14\u0e32\u0e1a\u0e31\u0e19", 
 "thaimc_26": "\u0e2a\u0e38\u0e15\u0e15\u0e31\u0e19\u0e15\u0e1b\u0e34\u0e0e\u0e01 \u0e02\u0e38\u0e17\u0e17\u0e01\u0e19\u0e34\u0e01\u0e32\u0e22 \u0e27\u0e34\u0e21\u0e32\u0e19-\u0e40\u0e1b\u0e15\u0e27\u0e31\u0e15\u0e16\u0e38 \u0e40\u0e16\u0e23-\u0e40\u0e16\u0e23\u0e35\u0e04\u0e32\u0e16\u0e32", 
 "thai_20": "\u0e2a\u0e38\u0e15\u0e15\u0e31\u0e19\u0e15\u0e1b\u0e34\u0e0e\u0e01 \u0e2d\u0e31\u0e07\u0e04\u0e38\u0e15\u0e15\u0e23\u0e19\u0e34\u0e01\u0e32\u0e22 \u0e40\u0e2d\u0e01-\u0e17\u0e38\u0e01-\u0e15\u0e34\u0e01\u0e19\u0e34\u0e1a\u0e32\u0e15", 
 "thaimc_24": "\u0e2a\u0e38\u0e15\u0e15\u0e31\u0e19\u0e15\u0e1b\u0e34\u0e0e\u0e01 \u0e2d\u0e31\u0e07\u0e04\u0e38\u0e15\u0e15\u0e23\u0e19\u0e34\u0e01\u0e32\u0e22 \u0e17\u0e2a\u0e01-\u0e40\u0e2d\u0e01\u0e32\u0e17\u0e2a\u0e01\u0e19\u0e34\u0e1a\u0e32\u0e15", 
 "thaimc_25": "\u0e2a\u0e38\u0e15\u0e15\u0e31\u0e19\u0e15\u0e1b\u0e34\u0e0e\u0e01 \u0e02\u0e38\u0e17\u0e17\u0e01\u0e19\u0e34\u0e01\u0e32\u0e22 \u0e02\u0e38\u0e17\u0e17\u0e01\u0e1b\u0e32\u0e10-\u0e18\u0e23\u0e23\u0e21\u0e1a\u0e17-\u0e2d\u0e38\u0e17\u0e32\u0e19-\u0e2d\u0e34\u0e15\u0e34\u0e27\u0e38\u0e15\u0e15\u0e01\u0e30-\u0e2a\u0e38\u0e15\u0e15\u0e19\u0e34\u0e1a\u0e32\u0e15", 
 "thaimc_22": "\u0e2a\u0e38\u0e15\u0e15\u0e31\u0e19\u0e15\u0e1b\u0e34\u0e0e\u0e01 \u0e2d\u0e31\u0e07\u0e04\u0e38\u0e15\u0e15\u0e23\u0e19\u0e34\u0e01\u0e32\u0e22 \u0e1b\u0e31\u0e0d\u0e08\u0e01-\u0e09\u0e31\u0e01\u0e01\u0e19\u0e34\u0e1a\u0e32\u0e15", 
 "thaimc_23": "\u0e2a\u0e38\u0e15\u0e15\u0e31\u0e19\u0e15\u0e1b\u0e34\u0e0e\u0e01 \u0e2d\u0e31\u0e07\u0e04\u0e38\u0e15\u0e15\u0e23\u0e19\u0e34\u0e01\u0e32\u0e22 \u0e2a\u0e31\u0e15\u0e15\u0e01-\u0e2d\u0e31\u0e0f\u0e10\u0e01-\u0e19\u0e27\u0e01\u0e19\u0e34\u0e1a\u0e32\u0e15", 
 "thaimc_20": "\u0e2a\u0e38\u0e15\u0e15\u0e31\u0e19\u0e15\u0e1b\u0e34\u0e0e\u0e01 \u0e2d\u0e31\u0e07\u0e04\u0e38\u0e15\u0e15\u0e23\u0e19\u0e34\u0e01\u0e32\u0e22 \u0e40\u0e2d\u0e01-\u0e17\u0e38\u0e01-\u0e15\u0e34\u0e01\u0e19\u0e34\u0e1a\u0e32\u0e15", 
 "thai_21": "\u0e2a\u0e38\u0e15\u0e15\u0e31\u0e19\u0e15\u0e1b\u0e34\u0e0e\u0e01 \u0e2d\u0e31\u0e07\u0e04\u0e38\u0e15\u0e15\u0e23\u0e19\u0e34\u0e01\u0e32\u0e22 \u0e08\u0e15\u0e38\u0e01\u0e01\u0e19\u0e34\u0e1a\u0e32\u0e15", 
 "thaims_13": "\u0e2a\u0e38\u0e15\u0e15\u0e31\u0e19\u0e15\u0e1b\u0e34\u0e0e\u0e01 \u0e21\u0e31\u0e0a\u0e0c\u0e34\u0e21\u0e19\u0e34\u0e01\u0e32\u0e22 \u0e21\u0e31\u0e0a\u0e0c\u0e34\u0e21\u0e1b\u0e31\u0e13\u0e13\u0e32\u0e2a\u0e01\u0e4c", 
 "thai_14": "\u0e2a\u0e38\u0e15\u0e15\u0e31\u0e19\u0e15\u0e1b\u0e34\u0e0e\u0e01 \u0e21\u0e31\u0e0a\u0e0c\u0e34\u0e21\u0e19\u0e34\u0e01\u0e32\u0e22 \u0e2d\u0e38\u0e1b\u0e23\u0e34\u0e1b\u0e31\u0e13\u0e13\u0e32\u0e2a\u0e01\u0e4c", 
 "thai_17": "\u0e2a\u0e38\u0e15\u0e15\u0e31\u0e19\u0e15\u0e1b\u0e34\u0e0e\u0e01 \u0e2a\u0e31\u0e07\u0e22\u0e38\u0e15\u0e15\u0e19\u0e34\u0e01\u0e32\u0e22 \u0e02\u0e31\u0e19\u0e18\u0e27\u0e32\u0e23\u0e27\u0e23\u0e23\u0e04", 
 "thai_16": "\u0e2a\u0e38\u0e15\u0e15\u0e31\u0e19\u0e15\u0e1b\u0e34\u0e0e\u0e01 \u0e2a\u0e31\u0e07\u0e22\u0e38\u0e15\u0e15\u0e19\u0e34\u0e01\u0e32\u0e22 \u0e19\u0e34\u0e17\u0e32\u0e19\u0e27\u0e23\u0e23\u0e04", 
 "thaims_17": "\u0e2a\u0e38\u0e15\u0e15\u0e31\u0e19\u0e15\u0e1b\u0e34\u0e0e\u0e01 \u0e2a\u0e31\u0e07\u0e22\u0e38\u0e15\u0e15\u0e19\u0e34\u0e01\u0e32\u0e22 \u0e02\u0e31\u0e19\u0e18\u0e27\u0e32\u0e23\u0e27\u0e23\u0e23\u0e04", 
 "thai_22": "\u0e2a\u0e38\u0e15\u0e15\u0e31\u0e19\u0e15\u0e1b\u0e34\u0e0e\u0e01 \u0e2d\u0e31\u0e07\u0e04\u0e38\u0e15\u0e15\u0e23\u0e19\u0e34\u0e01\u0e32\u0e22 \u0e1b\u0e31\u0e0d\u0e08\u0e01-\u0e09\u0e31\u0e01\u0e01\u0e19\u0e34\u0e1a\u0e32\u0e15", 
 "thaimc_28": "\u0e2a\u0e38\u0e15\u0e15\u0e31\u0e19\u0e15\u0e1b\u0e34\u0e0e\u0e01 \u0e02\u0e38\u0e17\u0e17\u0e01\u0e19\u0e34\u0e01\u0e32\u0e22 \u0e0a\u0e32\u0e14\u0e01 \u0e20\u0e32\u0e04 \u0e52", 
 "thaims_14": "\u0e2a\u0e38\u0e15\u0e15\u0e31\u0e19\u0e15\u0e1b\u0e34\u0e0e\u0e01 \u0e21\u0e31\u0e0a\u0e0c\u0e34\u0e21\u0e19\u0e34\u0e01\u0e32\u0e22 \u0e2d\u0e38\u0e1b\u0e23\u0e34\u0e1b\u0e31\u0e13\u0e13\u0e32\u0e2a\u0e01\u0e4c", 
 "thaimm_15": "\u0e2a\u0e38\u0e15\u0e15\u0e31\u0e19\u0e15\u0e1b\u0e34\u0e0e\u0e01 \u0e17\u0e35\u0e06\u0e19\u0e34\u0e01\u0e32\u0e22 \u0e1b\u0e32\u0e0f\u0e34\u0e01\u0e27\u0e23\u0e23\u0e04 \u0e40\u0e25\u0e48\u0e21\u0e17\u0e35\u0e48 \u0e53", 
 "thaimc_10": "\u0e2a\u0e38\u0e15\u0e15\u0e31\u0e19\u0e15\u0e1b\u0e34\u0e0e\u0e01 \u0e17\u0e35\u0e06\u0e19\u0e34\u0e01\u0e32\u0e22 \u0e21\u0e2b\u0e32\u0e27\u0e23\u0e23\u0e04", 
 "thaimm_17": "\u0e2a\u0e38\u0e15\u0e15\u0e31\u0e19\u0e15\u0e1b\u0e34\u0e0e\u0e01 \u0e21\u0e31\u0e0a\u0e0c\u0e34\u0e21\u0e19\u0e34\u0e01\u0e32\u0e22 \u0e21\u0e39\u0e25\u0e1b\u0e31\u0e13\u0e13\u0e32\u0e2a\u0e01\u0e4c \u0e40\u0e25\u0e48\u0e21\u0e17\u0e35\u0e48 \u0e51", 
 "thaimm_16": "\u0e2a\u0e38\u0e15\u0e15\u0e31\u0e19\u0e15\u0e1b\u0e34\u0e0e\u0e01 \u0e17\u0e35\u0e06\u0e19\u0e34\u0e01\u0e32\u0e22 \u0e1b\u0e32\u0e0f\u0e34\u0e01\u0e27\u0e23\u0e23\u0e04 \u0e40\u0e25\u0e48\u0e21\u0e17\u0e35\u0e48 \u0e53 (\u0e15\u0e48\u0e2d)", 
 "thaimm_11": "\u0e2a\u0e38\u0e15\u0e15\u0e31\u0e19\u0e15\u0e1b\u0e34\u0e0e\u0e01 \u0e17\u0e35\u0e06\u0e19\u0e34\u0e01\u0e32\u0e22 \u0e2a\u0e35\u0e25\u0e02\u0e31\u0e19\u0e18\u0e27\u0e23\u0e23\u0e04 \u0e40\u0e25\u0e48\u0e21\u0e17\u0e35\u0e48 \u0e51", 
 "thaimm_10": "\u0e27\u0e34\u0e19\u0e31\u0e22\u0e1b\u0e34\u0e0e\u0e01 \u0e1b\u0e23\u0e34\u0e27\u0e32\u0e23", 
 "thaimm_13": "\u0e2a\u0e38\u0e15\u0e15\u0e31\u0e19\u0e15\u0e1b\u0e34\u0e0e\u0e01 \u0e17\u0e35\u0e06\u0e19\u0e34\u0e01\u0e32\u0e22 \u0e21\u0e2b\u0e32\u0e27\u0e23\u0e23\u0e04 \u0e40\u0e25\u0e48\u0e21\u0e17\u0e35\u0e48 \u0e52", 
 "thaimm_12": "\u0e2a\u0e38\u0e15\u0e15\u0e31\u0e19\u0e15\u0e1b\u0e34\u0e0e\u0e01 \u0e17\u0e35\u0e06\u0e19\u0e34\u0e01\u0e32\u0e22 \u0e2a\u0e35\u0e25\u0e02\u0e31\u0e19\u0e18\u0e27\u0e23\u0e23\u0e04 \u0e40\u0e25\u0e48\u0e21\u0e17\u0e35\u0e48 \u0e51 (\u0e15\u0e48\u0e2d)", 
 "thai_10": "\u0e2a\u0e38\u0e15\u0e15\u0e31\u0e19\u0e15\u0e1b\u0e34\u0e0e\u0e01 \u0e17\u0e35\u0e06\u0e19\u0e34\u0e01\u0e32\u0e22 \u0e21\u0e2b\u0e32\u0e27\u0e23\u0e23\u0e04", 
 "thaimc_31": "\u0e2a\u0e38\u0e15\u0e15\u0e31\u0e19\u0e15\u0e1b\u0e34\u0e0e\u0e01 \u0e02\u0e38\u0e17\u0e17\u0e01\u0e19\u0e34\u0e01\u0e32\u0e22 \u0e1b\u0e0f\u0e34\u0e2a\u0e31\u0e21\u0e20\u0e34\u0e17\u0e32\u0e21\u0e23\u0e23\u0e04", 
 "thaipb_3": "\u0e1e\u0e38\u0e17\u0e18\u0e27\u0e08\u0e19 \u0e01\u0e49\u0e32\u0e27\u0e22\u0e48\u0e32\u0e07\u0e2d\u0e22\u0e48\u0e32\u0e07\u0e1e\u0e38\u0e17\u0e18\u0e30", 
 "pali_29": "\u0e2a\u0e38\u0e15\u0e3a\u0e15\u0e19\u0e3a\u0e15\u0e1b\u0e34\u0e0f\u0e40\u0e01 \u0e02\u0e38\u0e17\u0e3a\u0e17\u0e01\u0e19\u0e34\u0e01\u0e32\u0e22\u0e2a\u0e3a\u0e2a \u0e21\u0e2b\u0e32\u0e19\u0e34\u0e17\u0e3a\u0e40\u0e17\u0e42\u0e2a", 
 "thaipb_5": "\u0e1e\u0e38\u0e17\u0e18\u0e27\u0e08\u0e19 \u0e41\u0e01\u0e49\u0e01\u0e23\u0e23\u0e21", 
 "thaimm_53": "\u0e2a\u0e38\u0e15\u0e15\u0e31\u0e19\u0e15\u0e1b\u0e34\u0e0e\u0e01 \u0e02\u0e38\u0e17\u0e17\u0e01\u0e19\u0e34\u0e01\u0e32\u0e22 \u0e40\u0e16\u0e23\u0e04\u0e32\u0e16\u0e32 \u0e40\u0e25\u0e48\u0e21\u0e17\u0e35\u0e48 \u0e52 \u0e20\u0e32\u0e04\u0e17\u0e35\u0e48 \u0e53", 
 "thaipb_7": "\u0e1e\u0e38\u0e17\u0e18\u0e27\u0e08\u0e19 \u0e06\u0e23\u0e32\u0e27\u0e32\u0e2a\u0e0a\u0e31\u0e49\u0e19\u0e40\u0e25\u0e34\u0e28", 
 "thai_25": "\u0e2a\u0e38\u0e15\u0e15\u0e31\u0e19\u0e15\u0e1b\u0e34\u0e0e\u0e01 \u0e02\u0e38\u0e17\u0e17\u0e01\u0e19\u0e34\u0e01\u0e32\u0e22 \u0e02\u0e38\u0e17\u0e17\u0e01\u0e1b\u0e32\u0e10-\u0e18\u0e23\u0e23\u0e21\u0e1a\u0e17-\u0e2d\u0e38\u0e17\u0e32\u0e19-\u0e2d\u0e34\u0e15\u0e34\u0e27\u0e38\u0e15\u0e15\u0e01\u0e30-\u0e2a\u0e38\u0e15\u0e15\u0e19\u0e34\u0e1a\u0e32\u0e15", 
 "thaimm_14": "\u0e2a\u0e38\u0e15\u0e15\u0e31\u0e19\u0e15\u0e1b\u0e34\u0e0e\u0e01 \u0e17\u0e35\u0e06\u0e19\u0e34\u0e01\u0e32\u0e22 \u0e21\u0e2b\u0e32\u0e27\u0e23\u0e23\u0e04 \u0e40\u0e25\u0e48\u0e21\u0e17\u0e35\u0e48 \u0e52 \u0e20\u0e32\u0e04\u0e17\u0e35\u0e48 \u0e52", 
 "thaiwn_22": "\u0e2a\u0e38\u0e15\u0e15\u0e31\u0e19\u0e15\u0e1b\u0e34\u0e0e\u0e01 \u0e02\u0e38\u0e17\u0e17\u0e01\u0e19\u0e34\u0e01\u0e32\u0e22 \u0e08\u0e39\u0e2c\u0e19\u0e34\u0e17\u0e40\u0e17\u0e2a", 
 "thaiwn_21": "\u0e2a\u0e38\u0e15\u0e15\u0e31\u0e19\u0e15\u0e1b\u0e34\u0e0e\u0e01 \u0e02\u0e38\u0e17\u0e17\u0e01\u0e19\u0e34\u0e01\u0e32\u0e22 \u0e21\u0e2b\u0e32\u0e19\u0e34\u0e17\u0e40\u0e17\u0e2a", 
 "pali_15": "\u0e2a\u0e38\u0e15\u0e3a\u0e15\u0e19\u0e3a\u0e15\u0e1b\u0e34\u0e0f\u0e40\u0e01 \u0e2a\u0e4d\u0e22\u0e38\u0e15\u0e3a\u0e15\u0e19\u0e34\u0e01\u0e32\u0e22\u0e2a\u0e3a\u0e2a \u0e2a\u0e04\u0e32\u0e16\u0e27\u0e04\u0e3a\u0e42\u0e04", 
 "pali_9": "\u0e2a\u0e38\u0e15\u0e3a\u0e15\u0e19\u0e3a\u0e15\u0e1b\u0e34\u0e0f\u0e40\u0e01 \u0e17\u0e35\u0e06\u0e19\u0e34\u0e01\u0e32\u0e22\u0e2a\u0e3a\u0e2a \u0e2a\u0e35\u0e25\u0e01\u0e3a\u0e02\u0e19\u0e3a\u0e18\u0e27\u0e04\u0e3a\u0e42\u0e04", 
 "thaimc_33": "\u0e2a\u0e38\u0e15\u0e15\u0e31\u0e19\u0e15\u0e1b\u0e34\u0e0e\u0e01 \u0e02\u0e38\u0e17\u0e17\u0e01\u0e19\u0e34\u0e01\u0e32\u0e22 \u0e2d\u0e1b\u0e17\u0e32\u0e19 \u0e20\u0e32\u0e04 \u0e52 -\u0e1e\u0e38\u0e17\u0e18\u0e27\u0e31\u0e07\u0e2a\u0e30-\u0e08\u0e23\u0e34\u0e22\u0e32\u0e1b\u0e34\u0e0e\u0e01", 
 "thaims_15": "\u0e2a\u0e38\u0e15\u0e15\u0e31\u0e19\u0e15\u0e1b\u0e34\u0e0e\u0e01 \u0e2a\u0e31\u0e07\u0e22\u0e38\u0e15\u0e15\u0e19\u0e34\u0e01\u0e32\u0e22 \u0e2a\u0e04\u0e32\u0e16\u0e27\u0e23\u0e23\u0e04", 
 "pali_25": "\u0e2a\u0e38\u0e15\u0e3a\u0e15\u0e19\u0e3a\u0e15\u0e1b\u0e34\u0e0f\u0e40\u0e01 \u0e02\u0e38\u0e17\u0e3a\u0e17\u0e01\u0e19\u0e34\u0e01\u0e32\u0e22\u0e2a\u0e3a\u0e2a \u0e02\u0e38\u0e17\u0e3a\u0e17\u0e01\u0e1b\u0e32\u0e10-\u0e18\u0e21\u0e3a\u0e21\u0e1b\u0e17\u0e04\u0e32\u0e16\u0e32-\u0e2d\u0e38\u0e17\u0e32\u0e19\u0e4d-\u0e2d\u0e34\u0e15\u0e34\u0e27\u0e38\u0e15\u0e3a\u0e15\u0e01\u0e4d-\u0e2a\u0e38\u0e15\u0e3a\u0e15\u0e19\u0e34\u0e1b\u0e32\u0e15\u0e32", 
 "thaimm_55": "\u0e2a\u0e38\u0e15\u0e15\u0e31\u0e19\u0e15\u0e1b\u0e34\u0e0e\u0e01 \u0e02\u0e38\u0e17\u0e17\u0e01\u0e19\u0e34\u0e01\u0e32\u0e22 \u0e0a\u0e32\u0e14\u0e01 \u0e40\u0e25\u0e48\u0e21\u0e17\u0e35\u0e48 \u0e53 \u0e20\u0e32\u0e04\u0e17\u0e35\u0e48 \u0e51", 
 "thaiwn_29": "\u0e27\u0e34\u0e19\u0e31\u0e22\u0e1b\u0e34\u0e0e\u0e01 \u0e21\u0e2b\u0e32\u0e27\u0e23\u0e23\u0e04 \u0e20\u0e32\u0e04 \u0e51", 
 "thaiwn_28": "\u0e27\u0e34\u0e19\u0e31\u0e22\u0e1b\u0e34\u0e0e\u0e01 \u0e20\u0e34\u0e01\u0e02\u0e38\u0e19\u0e35\u0e27\u0e34\u0e20\u0e31\u0e07\u0e04\u0e4c", 
 "thaimm_61": "\u0e2a\u0e38\u0e15\u0e15\u0e31\u0e19\u0e15\u0e1b\u0e34\u0e0e\u0e01 \u0e02\u0e38\u0e17\u0e17\u0e01\u0e19\u0e34\u0e01\u0e32\u0e22 \u0e0a\u0e32\u0e14\u0e01 \u0e40\u0e25\u0e48\u0e21\u0e17\u0e35\u0e48 \u0e53 \u0e20\u0e32\u0e04\u0e17\u0e35\u0e48 \u0e57", 
 "thaimm_54": "\u0e2a\u0e38\u0e15\u0e15\u0e31\u0e19\u0e15\u0e1b\u0e34\u0e0e\u0e01 \u0e02\u0e38\u0e17\u0e17\u0e01\u0e19\u0e34\u0e01\u0e32\u0e22 \u0e40\u0e16\u0e23\u0e35\u0e04\u0e32\u0e16\u0e32\u0e51 \u0e40\u0e25\u0e48\u0e21\u0e17\u0e35\u0e48 \u0e52 \u0e20\u0e32\u0e04\u0e17\u0e35\u0e48 \u0e54", 
 "thaimc_27": "\u0e2a\u0e38\u0e15\u0e15\u0e31\u0e19\u0e15\u0e1b\u0e34\u0e0e\u0e01 \u0e02\u0e38\u0e17\u0e17\u0e01\u0e19\u0e34\u0e01\u0e32\u0e22 \u0e0a\u0e32\u0e14\u0e01 \u0e20\u0e32\u0e04 \u0e51", 
 "thai_28": "\u0e2a\u0e38\u0e15\u0e15\u0e31\u0e19\u0e15\u0e1b\u0e34\u0e0e\u0e01 \u0e02\u0e38\u0e17\u0e17\u0e01\u0e19\u0e34\u0e01\u0e32\u0e22 \u0e0a\u0e32\u0e14\u0e01 \u0e20\u0e32\u0e04 \u0e52", 
 "thaivn_5": "\u0e2d\u0e23\u0e34\u0e22\u0e27\u0e34\u0e19\u0e31\u0e22 \u0e27\u0e34\u0e19\u0e31\u0e22\u0e1b\u0e34\u0e0e\u0e01\u0e40\u0e25\u0e48\u0e21 \u0e54", 
 "thai_13": "\u0e2a\u0e38\u0e15\u0e15\u0e31\u0e19\u0e15\u0e1b\u0e34\u0e0e\u0e01 \u0e21\u0e31\u0e0a\u0e0c\u0e34\u0e21\u0e19\u0e34\u0e01\u0e32\u0e22 \u0e21\u0e31\u0e0a\u0e0c\u0e34\u0e21\u0e1b\u0e31\u0e13\u0e13\u0e32\u0e2a\u0e01\u0e4c", 
 "thai_29": "\u0e2a\u0e38\u0e15\u0e15\u0e31\u0e19\u0e15\u0e1b\u0e34\u0e0e\u0e01 \u0e02\u0e38\u0e17\u0e17\u0e01\u0e19\u0e34\u0e01\u0e32\u0e22 \u0e21\u0e2b\u0e32\u0e19\u0e34\u0e17\u0e40\u0e17\u0e2a", 
 "thaipb_4": "\u0e1e\u0e38\u0e17\u0e18\u0e27\u0e08\u0e19 \u0e21\u0e23\u0e23\u0e04\u0e27\u0e34\u0e18\u0e35\u0e17\u0e35\u0e48\u0e07\u0e48\u0e32\u0e22", 
 "thaivn_4": "\u0e2d\u0e23\u0e34\u0e22\u0e27\u0e34\u0e19\u0e31\u0e22 \u0e27\u0e34\u0e19\u0e31\u0e22\u0e1b\u0e34\u0e0e\u0e01\u0e40\u0e25\u0e48\u0e21 \u0e53", 
 "pali_16": "\u0e2a\u0e38\u0e15\u0e3a\u0e15\u0e19\u0e3a\u0e15\u0e1b\u0e34\u0e0f\u0e40\u0e01 \u0e2a\u0e4d\u0e22\u0e38\u0e15\u0e3a\u0e15\u0e19\u0e34\u0e01\u0e32\u0e22\u0e2a\u0e3a\u0e2a \u0e19\u0e34\u0e17\u0e32\u0e19\u0e27\u0e04\u0e3a\u0e42\u0e04", 
 "thaipb_20": "\u0e1e\u0e38\u0e17\u0e18\u0e27\u0e08\u0e19 \u0e2a\u0e31\u0e07\u0e42\u0e22\u0e0a\u0e19\u0e4c", 
 "pali_14": "\u0e2a\u0e38\u0e15\u0e3a\u0e15\u0e19\u0e3a\u0e15\u0e1b\u0e34\u0e0f\u0e40\u0e01 \u0e21\u0e0a\u0e3a\u0e0c\u0e34\u0e21\u0e19\u0e34\u0e01\u0e32\u0e22\u0e2a\u0e3a\u0e2a \u0e2d\u0e38\u0e1b\u0e23\u0e34\u0e1b\u0e13\u0e3a\u0e13\u0e32\u0e2a\u0e01\u0e4d", 
 "pali_8": "\u0e27\u0e34\u0e19\u0e22\u0e1b\u0e34\u0e0f\u0e40\u0e01 \u0e1b\u0e23\u0e34\u0e27\u0e32\u0e42\u0e23", 
 "pali_22": "\u0e2a\u0e38\u0e15\u0e3a\u0e15\u0e19\u0e3a\u0e15\u0e1b\u0e34\u0e0f\u0e40\u0e01 \u0e2d\u0e07\u0e3a\u0e04\u0e38\u0e15\u0e3a\u0e15\u0e23\u0e19\u0e34\u0e01\u0e32\u0e22\u0e2a\u0e3a\u0e2a \u0e1b\u0e0d\u0e3a\u0e08\u0e01-\u0e09\u0e01\u0e3a\u0e01\u0e19\u0e34\u0e1b\u0e32\u0e15\u0e32", 
 "thaiwn_25": "\u0e2a\u0e38\u0e15\u0e15\u0e31\u0e19\u0e15\u0e1b\u0e34\u0e0e\u0e01 \u0e02\u0e38\u0e17\u0e17\u0e01\u0e19\u0e34\u0e01\u0e32\u0e22 \u0e2d\u0e1b\u0e17\u0e32\u0e19 \u0e20\u0e32\u0e04 \u0e52 -\u0e1e\u0e38\u0e17\u0e18\u0e27\u0e31\u0e07\u0e2a\u0e30-\u0e08\u0e23\u0e34\u0e22\u0e32\u0e1b\u0e34\u0e0e\u0e01", 
 "thaivn_3": "\u0e2d\u0e23\u0e34\u0e22\u0e27\u0e34\u0e19\u0e31\u0e22 \u0e27\u0e34\u0e19\u0e31\u0e22\u0e1b\u0e34\u0e0e\u0e01\u0e40\u0e25\u0e48\u0e21 \u0e52", 
 "thaimm_81": "\u0e2d\u0e20\u0e34\u0e18\u0e23\u0e23\u0e21\u0e1b\u0e34\u0e0e\u0e01 \u0e01\u0e16\u0e32\u0e27\u0e31\u0e15\u0e16\u0e38 \u0e20\u0e32\u0e04\u0e17\u0e35\u0e48 \u0e52", 
 "thaiwn_20": "\u0e2a\u0e38\u0e15\u0e15\u0e31\u0e19\u0e15\u0e1b\u0e34\u0e0e\u0e01 \u0e02\u0e38\u0e17\u0e17\u0e01\u0e19\u0e34\u0e01\u0e32\u0e22 \u0e0a\u0e32\u0e14\u0e01 \u0e20\u0e32\u0e04 \u0e52", 
 "thai_12": "\u0e2a\u0e38\u0e15\u0e15\u0e31\u0e19\u0e15\u0e1b\u0e34\u0e0e\u0e01 \u0e21\u0e31\u0e0a\u0e0c\u0e34\u0e21\u0e19\u0e34\u0e01\u0e32\u0e22 \u0e21\u0e39\u0e25\u0e1b\u0e31\u0e13\u0e13\u0e32\u0e2a\u0e01\u0e4c", 
 "thaimm_86": "\u0e2d\u0e20\u0e34\u0e18\u0e23\u0e23\u0e21\u0e1b\u0e34\u0e0e\u0e01 \u0e1b\u0e31\u0e0f\u0e10\u0e32\u0e19 \u0e20\u0e32\u0e04\u0e17\u0e35\u0e48 \u0e52", 
 "thaiwn_27": "\u0e27\u0e34\u0e19\u0e31\u0e22\u0e1b\u0e34\u0e0e\u0e01 \u0e21\u0e2b\u0e32\u0e27\u0e34\u0e20\u0e31\u0e07\u0e04\u0e4c \u0e20\u0e32\u0e04 \u0e52", 
 "thaimm_43": "\u0e2a\u0e38\u0e15\u0e15\u0e31\u0e19\u0e15\u0e1b\u0e34\u0e0e\u0e01 \u0e02\u0e38\u0e17\u0e17\u0e01\u0e19\u0e34\u0e01\u0e32\u0e22 \u0e04\u0e32\u0e16\u0e32\u0e18\u0e23\u0e23\u0e21\u0e1a\u0e17 \u0e40\u0e25\u0e48\u0e21\u0e17\u0e35\u0e48 \u0e51 \u0e20\u0e32\u0e04\u0e17\u0e35\u0e48 \u0e52", 
 "thaimm_23": "\u0e2a\u0e38\u0e15\u0e15\u0e31\u0e19\u0e15\u0e1b\u0e34\u0e0e\u0e01 \u0e21\u0e31\u0e0a\u0e0c\u0e34\u0e21\u0e19\u0e34\u0e01\u0e32\u0e22 \u0e2d\u0e38\u0e1b\u0e23\u0e34\u0e1b\u0e31\u0e13\u0e13\u0e32\u0e2a\u0e01\u0e4c \u0e40\u0e25\u0e48\u0e21\u0e17\u0e35\u0e48 \u0e53 \u0e20\u0e32\u0e04\u0e17\u0e35\u0e48 \u0e52", 
 "thaiwn_26": "\u0e27\u0e34\u0e19\u0e31\u0e22\u0e1b\u0e34\u0e0e\u0e01 \u0e21\u0e2b\u0e32\u0e27\u0e34\u0e20\u0e31\u0e07\u0e04\u0e4c \u0e20\u0e32\u0e04 \u0e51", 
 "thaiwn_4": "\u0e2a\u0e38\u0e15\u0e15\u0e31\u0e19\u0e15\u0e1b\u0e34\u0e0e\u0e01 \u0e21\u0e31\u0e0a\u0e0c\u0e34\u0e21\u0e19\u0e34\u0e01\u0e32\u0e22 \u0e21\u0e39\u0e25\u0e1b\u0e31\u0e13\u0e13\u0e32\u0e2a\u0e01\u0e4c", 
 "thaiwn_30": "\u0e27\u0e34\u0e19\u0e31\u0e22\u0e1b\u0e34\u0e0e\u0e01 \u0e21\u0e2b\u0e32\u0e27\u0e23\u0e23\u0e04 \u0e20\u0e32\u0e04 \u0e52", 
 "thaiwn_31": "\u0e27\u0e34\u0e19\u0e31\u0e22\u0e1b\u0e34\u0e0e\u0e01 \u0e08\u0e38\u0e25\u0e27\u0e23\u0e23\u0e04 \u0e20\u0e32\u0e04 \u0e51", 
 "thaiwn_32": "\u0e27\u0e34\u0e19\u0e31\u0e22\u0e1b\u0e34\u0e0e\u0e01 \u0e08\u0e38\u0e25\u0e27\u0e23\u0e23\u0e04 \u0e20\u0e32\u0e04 \u0e52", 
 "thaims_27": "\u0e2a\u0e38\u0e15\u0e15\u0e31\u0e19\u0e15\u0e1b\u0e34\u0e0e\u0e01 \u0e02\u0e38\u0e17\u0e17\u0e01\u0e19\u0e34\u0e01\u0e32\u0e22 \u0e0a\u0e32\u0e14\u0e01 \u0e20\u0e32\u0e04 \u0e51", 
 "thaivn_2": "\u0e2d\u0e23\u0e34\u0e22\u0e27\u0e34\u0e19\u0e31\u0e22 \u0e27\u0e34\u0e19\u0e31\u0e22\u0e1b\u0e34\u0e0e\u0e01\u0e40\u0e25\u0e48\u0e21 \u0e51", 
 "thaimc_29": "\u0e2a\u0e38\u0e15\u0e15\u0e31\u0e19\u0e15\u0e1b\u0e34\u0e0e\u0e01 \u0e02\u0e38\u0e17\u0e17\u0e01\u0e19\u0e34\u0e01\u0e32\u0e22 \u0e21\u0e2b\u0e32\u0e19\u0e34\u0e17\u0e40\u0e17\u0e2a", 
 "thaiwn_24": "\u0e2a\u0e38\u0e15\u0e15\u0e31\u0e19\u0e15\u0e1b\u0e34\u0e0e\u0e01 \u0e02\u0e38\u0e17\u0e17\u0e01\u0e19\u0e34\u0e01\u0e32\u0e22 \u0e2d\u0e1b\u0e17\u0e32\u0e19 \u0e20\u0e32\u0e04 \u0e51", 
 "thaims_24": "\u0e2a\u0e38\u0e15\u0e15\u0e31\u0e19\u0e15\u0e1b\u0e34\u0e0e\u0e01 \u0e2d\u0e31\u0e07\u0e04\u0e38\u0e15\u0e15\u0e23\u0e19\u0e34\u0e01\u0e32\u0e22 \u0e17\u0e2a\u0e01-\u0e40\u0e2d\u0e01\u0e32\u0e17\u0e2a\u0e01\u0e19\u0e34\u0e1a\u0e32\u0e15", 
 "thaimm_60": "\u0e2a\u0e38\u0e15\u0e15\u0e31\u0e19\u0e15\u0e1b\u0e34\u0e0e\u0e01 \u0e02\u0e38\u0e17\u0e17\u0e01\u0e19\u0e34\u0e01\u0e32\u0e22 \u0e0a\u0e32\u0e14\u0e01 \u0e40\u0e25\u0e48\u0e21\u0e17\u0e35\u0e48 \u0e53 \u0e20\u0e32\u0e04\u0e17\u0e35\u0e48 \u0e56", 
 "thaiwn_5": "\u0e2a\u0e38\u0e15\u0e15\u0e31\u0e19\u0e15\u0e1b\u0e34\u0e0e\u0e01 \u0e21\u0e31\u0e0a\u0e0c\u0e34\u0e21\u0e19\u0e34\u0e01\u0e32\u0e22 \u0e21\u0e31\u0e0a\u0e0c\u0e34\u0e21\u0e1b\u0e31\u0e13\u0e13\u0e32\u0e2a\u0e01\u0e4c", 
 "thaims_25": "\u0e2a\u0e38\u0e15\u0e15\u0e31\u0e19\u0e15\u0e1b\u0e34\u0e0e\u0e01 \u0e02\u0e38\u0e17\u0e17\u0e01\u0e19\u0e34\u0e01\u0e32\u0e22 \u0e02\u0e38\u0e17\u0e17\u0e01\u0e1b\u0e32\u0e10-\u0e18\u0e23\u0e23\u0e21\u0e1a\u0e17-\u0e2d\u0e38\u0e17\u0e32\u0e19-\u0e2d\u0e34\u0e15\u0e34\u0e27\u0e38\u0e15\u0e15\u0e01\u0e30-\u0e2a\u0e38\u0e15\u0e15\u0e19\u0e34\u0e1a\u0e32\u0e15", 
 "thaipb_6": "\u0e1e\u0e38\u0e17\u0e18\u0e27\u0e08\u0e19 \u0e2d\u0e32\u0e19\u0e32\u0e1b\u0e32\u0e19\u0e2a\u0e15\u0e34", 
 "thaimm_87": "\u0e2d\u0e20\u0e34\u0e18\u0e23\u0e23\u0e21\u0e1b\u0e34\u0e0e\u0e01 \u0e1b\u0e31\u0e0f\u0e10\u0e32\u0e19 \u0e20\u0e32\u0e04\u0e17\u0e35\u0e48 \u0e53", 
 "thaimm_82": "\u0e2d\u0e20\u0e34\u0e18\u0e23\u0e23\u0e21\u0e1b\u0e34\u0e0e\u0e01 \u0e22\u0e21\u0e01 \u0e20\u0e32\u0e04\u0e17\u0e35\u0e48 \u0e51 \u0e15\u0e2d\u0e19\u0e17\u0e35\u0e48 \u0e51", 
 "thaimm_40": "\u0e2a\u0e38\u0e15\u0e15\u0e31\u0e19\u0e15\u0e1b\u0e34\u0e0e\u0e01 \u0e02\u0e38\u0e17\u0e17\u0e01\u0e19\u0e34\u0e01\u0e32\u0e22 \u0e04\u0e32\u0e16\u0e32\u0e18\u0e23\u0e23\u0e21\u0e1a\u0e17 \u0e40\u0e25\u0e48\u0e21\u0e17\u0e35\u0e48 \u0e51 \u0e20\u0e32\u0e04\u0e17\u0e35\u0e48 \u0e52", 
 "thaimm_64": "\u0e2a\u0e38\u0e15\u0e15\u0e31\u0e19\u0e15\u0e1b\u0e34\u0e0e\u0e01 \u0e02\u0e38\u0e17\u0e17\u0e01\u0e19\u0e34\u0e01\u0e32\u0e22 \u0e0a\u0e32\u0e14\u0e01 \u0e40\u0e25\u0e48\u0e21\u0e17\u0e35\u0e48 \u0e54 \u0e20\u0e32\u0e04\u0e17\u0e35\u0e48 \u0e53", 
 "thaimm_91": "\u0e2d\u0e20\u0e34\u0e18\u0e23\u0e23\u0e21\u0e1b\u0e34\u0e0e\u0e01 \u0e1b\u0e31\u0e0f\u0e10\u0e32\u0e19 \u0e20\u0e32\u0e04\u0e17\u0e35\u0e48 \u0e57", 
 "thaimm_90": "\u0e2d\u0e20\u0e34\u0e18\u0e23\u0e23\u0e21\u0e1b\u0e34\u0e0e\u0e01 \u0e1b\u0e31\u0e0f\u0e10\u0e32\u0e19 \u0e20\u0e32\u0e04\u0e17\u0e35\u0e48 \u0e56", 
 "thaiwn_1": "\u0e2a\u0e38\u0e15\u0e15\u0e31\u0e19\u0e15\u0e1b\u0e34\u0e0e\u0e01 \u0e17\u0e35\u0e06\u0e19\u0e34\u0e01\u0e32\u0e22 \u0e2a\u0e35\u0e25\u0e02\u0e31\u0e19\u0e18\u0e27\u0e23\u0e23\u0e04"
}
